<?xml version="1.0" encoding="UTF-8" standalone="no"?>
<!-- Created with Inkscape (http://www.inkscape.org/) -->
<svg
    xmlns:inkscape="http://www.inkscape.org/namespaces/inkscape"
    xmlns:rdf="http://www.w3.org/1999/02/22-rdf-syntax-ns#"
    xmlns="http://www.w3.org/2000/svg"
    xmlns:cc="http://web.resource.org/cc/"
    xmlns:dc="http://purl.org/dc/elements/1.1/"
    xmlns:sodipodi="http://sodipodi.sourceforge.net/DTD/sodipodi-0.dtd"
    xmlns:svg="http://www.w3.org/2000/svg"
    xmlns:ns1="http://sozi.baierouge.fr"
    xmlns:xlink="http://www.w3.org/1999/xlink"
    id="svg2149"
    sodipodi:modified="true"
    sodipodi:docname="JPortugall_old_bridge.svg"
    viewBox="0 0 255.33 129.49"
    sodipodi:version="0.32"
    version="1.0"
    inkscape:output_extension="org.inkscape.output.svg.inkscape"
    inkscape:version="0.45"
    sodipodi:docbase="/home/evans/Desktop"
  >
  <sodipodi:namedview
      id="base"
      bordercolor="#666666"
      inkscape:pageshadow="2"
      inkscape:window-y="24"
      pagecolor="#ffffff"
      inkscape:showpageshadow="false"
      inkscape:zoom="3.6267286"
      inkscape:window-x="0"
      borderopacity="1.0"
      inkscape:current-layer="layer2"
      inkscape:cx="127.66326"
      inkscape:cy="64.743515"
      inkscape:window-height="694"
      inkscape:pageopacity="0.0"
      inkscape:window-width="1020"
  />
  <g
      id="layer2"
      inkscape:label="Brücke"
      inkscape:groupmode="layer"
      transform="translate(-341.04 -403.66)"
    >
    <g
        id="g33975"
        transform="matrix(.30033 0 0 .30033 343.85 347.23)"
      >
      <g
          id="g22514"
          transform="matrix(.53986 0 0 .57499 143.31 -20.656)"
        >
        <path
            id="path22516"
            style="fill-rule:evenodd;stroke:#000000;stroke-width:1px;fill:#baab5a"
            d="m632.39 555.57l10.18 1.77 7.97 4.43-0.45 7.08 11.51 7.96 7.52 7.08-1.77 7.53-23.45 15.49-10.18 7.52-12.84 3.98-24.33 14.16-17.26-1.32-15.49-3.1-15.49-0.44-15.49-1.33-37.62-11.06-17.7-12.84-0.44-5.75 4.87-2.66-0.45-5.75 3.54-5.31 4.87-2.21 2.22-9.74 7.08-3.98 33.63 5.75 35.4 4.87 17.26 3.54 23.01-7.52 23.9-18.15z"
        />
        <path
            id="path22518"
            style="fill-rule:evenodd;stroke:#000000;stroke-width:1px;fill:#d6cd9d"
            d="m552.29 432.1l26.55 1.77 16.82 3.1 23.9 6.64 6.64 0.44 2.21 17.26 1.33 15.05-2.22 8.41 0.89 17.25 2.21 11.95-0.44 25.23 2.21 14.16-21.24 19.91-27.44 5.31-41.6-3.54-23.45-4.42-12.84-3.98 3.99-22.57 3.54-19.03-2.22-5.31 3.55-22.13 3.09-7.08-6.19-6.64-2.22-7.52-2.21-10.62 3.1-7.97 6.2-5.75 21.68-11.95 14.16-7.97z"
        />
        <path
            id="path22520"
            sodipodi:nodetypes="csssssssssssssssssssssssssssssssssssssssssssssssssssssssscccccccsssssssssssssssssssssssssssssssssssssssssssssscsssssssssssssssssssssssssssssssssssssccccccccsssssccssssssssscc"
            style="fill-rule:evenodd;stroke:#000000;stroke-width:1px;fill:#000000"
            d="m513.97 496.1s-0.31-2.88-1.67 4.43c-0.95 5.07-4.65 19.53 0.18 24.64 0.02 0.03 1.61-8.61 2.33-16.33 0.36-3.88-2.06-4.92 0.63-10.8 0.21-0.47 12.77-6.35 27.93-6.22 15.76 0.13 24.31 5.91 34.17 5.88 2.32 0 2.57 21.05 3.49 31.98 0.69 8.11 2.08 6.96 3.13 6.87 0.5-0.04 2.79-1.39 2.92-6.13 0.29-11.09-2.15-31.64-1.69-31.82 18.47-7.13 27.35-15.57 39.95-14.73 7.51 0.49-1.63 21.31 2.27 22.7 10.8 3.86-33.49 26.38-38.72 28.46-6.19 2.45-23.98-3.78-23.79-2.58 0.45 2.84-47.79-11.4-51.82-10.29-1.21 0.33-4.72 7.17-4.85 8.77-1.23 14.47-3.76 37.61-2.17 36.94 2-0.84 2.74-6.49 4.58-18.2 1.36-8.66 3.98-24.42 4.76-24.27 6 1.17 33.77 4.85 47.82 10.5 3.14 1.27 13.43 1.41 16.53 1.38 3.24-0.03 1.39 39.75 4.51 40.43 4.58 0.99-0.26-35.18 5.5-37.9 13.34-6.32 35.47-24.02 36.46-23.23 4.7 3.78 0.14 32.28 3.35 35.55 0.52 0.53-6.79 10.05-16.17 15.61-11.14 6.6-25.02 9.35-29.69 9.05-14.45-0.9-54.04-9.02-58.13-8.13-10.45 2.27-32.11-8.22-35-2.52-6.65 13.11-2.71 10.45-3.67 18.72-0.41 3.57 6.69-3.74 6.01-10.84-0.08-0.92 2.15-3.49 6.34-5.06 2.35-0.89 13.75-0.42 17.28 4.38 6.09 8.26 29.89 7.82 46.35 7.15 5.83-0.23 17.06 3.79 20.36 3.9 2.92 0.11 1.1 19.69 4.84 20.17 5.72 0.73-0.69-21.79 1.75-22 8.07-0.69 19.81-6.06 27.78-11.6 8.15-5.66 10.26-11.5 14.66-12.71 4.99-1.36 11.33 0.11 13.63 0.95 6.08 2.22 1.19 8.71-1.32 11.53-5.59 6.32-0.17 0.4-2.78 1.78-3.78 2-10.59 5.62-17.7 10.73-11.93 8.57-25.06 19.46-35.17 20.23-32.69 2.47-56.45-21.59-52-13.16 0.92 1.76-51.43-8.74-52.01-8.78-4.05-0.27-7.35 8.14-3.15 10.3 2.15 1.09 0.3-7.02 3.29-6.48 14.67 2.61 34.7 7.28 60.74 11.5 8.73 1.42 32.57 8.61 42.28 10.09 0.94 0.15 0.3 17.7 2.5 17.3 1.87-0.35 1.28-17.86 1.77-17.96 16.78-3.5 22.99-12.66 33.35-20.37 13.32-9.89 23.57-16.45 28.88-13.59 2.73 1.47-1.33 4.13 0.9 5.32 0.47 0.26-14.62 15.26-22.87 21.28-18.44 13.43-39.77 24.14-39.77 24.14l-11 1.05-33.18-14.79-46.11-9.67-17.03-3.48-4.86-5.2c1.35-2.03-2.44 7.42 0.41 4.56 3.48 1.77 4.32 5.06 8.51 5.06 9.43 0 23.53 3.32 33.11 4.92 8.92 1.48 30.63 10.77 39.77 13.82 9.59 3.19 19.57 6.6 29.67 6.6 8.55 0 29.18-15.77 35.42-20.45 7.37-5.53 12.25-8.63 19.76-14.27 3.88-2.9 7.37-10.5 11.62-10.5 10.9 0 11.32 3.59 2.03 12.88-5.83 5.84-9.53 5.16-12.72 7.57-4.72 3.58-15.83 13.24-22.04 14.28-7.23 1.2-28.28 15.59-34.47 15.59-11.03 0-16.62-1.96-25.89-3.82-7.75-1.55-24.52 1.53-31.84-1.77-4.48-2.02-21.73-7.61-31.04-9.47-6.89-1.38-14.11-6.79-19.65-10.94-1.08-0.81-4.34-4.53-4.42-6.76-0.09-2.26 2.99-3.02 1.99-3.89-1.48-1.28-7.31 1.71-6.16 6.06 1.3 4.95 9.29 13.09 16.3 14.84 8.54 2.14 15.75 6.86 24.4 8.58 8.42 1.69 16.41 2.15 24.93 4.29 6.16 1.53 11.77-0.92 18.08 0.65 8.58 2.15 20.05 6 29.25 6 11.27 0 16.83-4.4 23.89-9.93 5.06-3.97 8.35-3.36 12.2-7.26 0.83-0.84 12.43-2.82 13.49-3.35 4.26-2.13 11.56-12.01 15.85-12.02 3.83-0.01 16.97-10.77 17.44-13.33 0.62-3.35-0.96-4.48-2.34-8.31-1.81-5.07-0.89-2.87-6.86-7.51-2.22-1.72-5.3-3.29-7.48-6.19-2.32-3.1-1.66-5.84-4.38-7.52-2.71-1.68-10.79-4.74-13.87-6.79-2.89-1.93-2.02-10.06-2.36-12.18-1.07-6.84-3.33-33.58-3.33-37.24 0-9.11 3.09-8.93 0.83-17.34-0.61-2.28-3.17-4.68-5.08-6.48-2.38-2.26-38.6 11.85-39.24 11.92-3.74 0.44 1.76-6.87 13.59-11.64 5.3-2.14 13.3-10.4 19.04-11.59 1.25-0.26 7.28-5.69 8.45-2.9 1.28 3.06-2.32 14.4-1.31 14.73 1.55 0.53 2.52 5.62 3.47 4.11 1.39-2.21 2.44-11.46 2.56-11.3 0.01 0 0.03 0.02 0.03 0.03 0.01 0.02 0.03 0.07 0.03 0.09 0.03 0.25-0.19 0.66-0.75 1.22 3.34-1.75 1.33-16.73-5.62-14.84-4.81 1.3-13.22 8.61-19.63 10.96-6.63 2.44-11.22 6.63-18.34 10.54-0.39 0.22-1.37 0.37-2.57 0.46-0.25 0.02-0.55-2.92-0.85-11.28-0.04-0.93-0.36-4.34 1.78-5.98 2.04-1.58 6.55-1.39 6.52-2.29-0.05-1.26 12.89-9.56 25.96-14.01 1.28-0.43 4.1-4.25 5.63-1.83 2.27 3.59 3.2 14 4.25 13.56 1.41-0.58-0.03-15.51-0.04-15.74-0.05-1.23-1.32-1.63-3.37-1.46-1.15 0.09-68.87-10.29-70.42-9.89-1.03 0.27 27.11-1.02 41.29 4.39 3.01 1.15 13.67 4.19 15.97 5.11 7.74 3.12 3.35 2.92 2.47 3.23-10.5 3.76-23.06 9.86-23.2 9.87-0.13 0-5.39 4.1-12.2 6.22-6.25 1.94-13.77 1.9-20.67 2.28-1.8 0.1-22.39-7.03-24.23-6.9-4.26 0.29-7.21-3.25-9.99-3.81-1.05-0.21-5.56 0.26 1.77-4.93 11.63-8.24 40.62-15.1 39.6-15.32-2.45-0.51-16.57-4.36-30.29 4.23-8.99 5.63-23 15.98-23.07 17.31-0.03 0.61 14.35 5.08 29.95 9.86 8.79 2.69 16.72 2.49 23.92 4.74 3.65 1.14 9.29-2.24 11.91-0.77 3.09 1.73 2.84 8.23 2.83 8.4-0.19 3.69 0.34 5.14 0.14 5.13-1.42-0.02-2.61-0.1-3.03-0.24-2.86-0.92-8.43-3.74-15.39-3-9.55 1.01-14.1-6.09-22.05-5.46-6.2 0.48-9.1-3.15-14.64-2.91-6.74 0.29-9.84-1.87-14.65-1.61-2.81 0.15-2.62 2.6-2.97-0.83-0.51-4.86 7.52-16.37 6.92-15.81l-9.35 8.74-1.75 8.64 1.04 5.6 6.38 7.5 29.81 2.35 37.7 8.32-0.27-8.03-5.4-1.48c-11.32-1.98-8.62 0.22-16.78-2.93-3.21-1.24-28.4-6.14-31.16-6.37-1.72-0.15-13.91-3.8-16.76-1.82-1.9 1.32 5.74 8.13 3.62 9.21-2.88 1.46-1.73 6.69-0.22 9.72 1.21 2.43 2.49 4.6 1.66 5.25zm-33.1 94.87c-0.19 0.28-0.34 0.53-0.41 0.72-0.01 0.04-0.02 0.09-0.03 0.13-0.01 0.02 0 0.07 0 0.09v0.03 0.06c0 0.02 0.02 0.05 0.03 0.07 0.01 0 0.02 0.02 0.03 0.03 0.01 0 0.03-0.01 0.03 0 0.01 0 0.05 0.02 0.06 0.03h0.07l0.22-1.16z"
        />
        <path
            id="path22522"
            style="fill-rule:evenodd;fill:#000000;fill-opacity:.32143"
            d="m557.16 464.85c-2.37-0.09-5.07 3.46-6.2 7.97-1.13 4.53-0.21 9.27-2.21 13.27-2 4.01-3.98 5.33-4.87 9.74-0.77 3.85-2.57 6.75-3.54 10.62-0.75 3.03 0.24 7.68-0.44 11.06-0.15 0.74-0.3 1.48-0.44 2.22-0.6 3-0.89 6.09-0.89 9.29 0 3.69 0.27 7.53-0.44 11.06-0.68 3.4-1.77 6.8-1.77 10.18 0 3.62-0.29 7.67-1.77 10.62-1.39 2.78-2.56 6-3.98 8.85-1.63 3.26-2.66 6.16-2.66 9.74 0 3.61-4.63 4.51-6.64 7.52-1.28 1.93-0.95 7.22-2.21 9.74-1.86 3.73-3.42 5.72-4.42 9.73-0.91 3.62-1.93 6.65-4.87 8.86-1.19 0.88-1.92 2.36-3.1 3.54-17.26-7.97-27.44-14.61-27.44-14.61l-1.33-7.08 3.99-3.54v-4.42l3.54-5.76 2.65-0.44 1.33-8.41 6.64-5.75 10.18-2.21 6.63-41.6v-11.07l1.78-14.16 4.42-7.08-4.42-6.64-3.1-6.63-3.1-8.86-1.33-7.52 4.43-6.19 4.42-3.54 9.74 3.09 16.82 4.43 11.94 3.54"
        />
      </g
      >
      <path
          id="path30399"
          sodipodi:nodetypes="csssccccccccccccccssssscsc"
          style="fill-rule:evenodd;fill:#baab5a"
          d="m407.59 565.17c-106.19-19.31-118.81-21.53-129.21-25.25-10.4-3.71-60.15-14.11-66.83-15.59-6.68-1.49-36.39-9.65-41.58-12.62-5.2-2.98-38.62-11.14-38.62-11.14l-9.65-43.81 29.7-38.62 55.69-58.66 55.7-56.44 63.86-28.96 77.97 7.43 27.47 16.34-0.74 7.42 23.81 8.4 8.86 11.17 21.16 3.13 50.13 4.78 54.95-6.69s-19.31 14.86-28.96 23.77c-9.66 8.91-17.08 15.59-27.48 34.9-10.39 19.3-11.14 21.53-17.08 31.18-5.94 9.66-9.65 15.6-14.85 24.51s-19.31 41.58-23.76 46.78c-4.46 5.2-16.34 24.51-16.34 24.51s-28.96 18.56-32.67 23.01c-3.71 4.46-20.79 30.45-21.53 30.45z"
      />
      <path
          id="path29524"
          style="fill-rule:evenodd;fill:#d6cd9d"
          d="m141.75 466.41c-5.2-6.68-12.63-40.84-12.63-40.84l0.75-29.7-6.69-11.89 18.57-14.1 20.05-28.22 27.47-28.22 17.82-20.79 31.19-22.28 25.25-21.53 12.62-9.66 28.96-8.16h40.1l25.99 1.48 24.5 7.43 51.98 27.47 3.72 24.51-18.57 12.62-56.43-12.62-39.36-2.97-36.38 6.68-24.51 17.08-20.05 18.56-14.85 11.14-19.31 20.05-7.42 11.14-18.57 16.33-15.59 11.89-4.45 10.39-11.89 10.4-4.45 3.71-6.68 14.11-8.17 11.88-2.97 14.11z"
      />
      <g
          id="g22494"
          transform="matrix(.64520 0 0 .68861 376.79 -14.337)"
        >
        <path
            id="path22496"
            style="fill-rule:evenodd;stroke:#000000;stroke-width:1px;fill:#baab5a"
            d="m632.39 555.57l10.18 1.77 7.97 4.43-0.45 7.08 11.51 7.96 7.52 7.08-1.77 7.53-23.45 15.49-10.18 7.52-12.84 3.98-24.33 14.16-17.26-1.32-15.49-3.1-15.49-0.44-15.49-1.33-37.62-11.06-17.7-12.84-0.44-5.75 4.87-2.66-0.45-5.75 3.54-5.31 4.87-2.21 2.22-9.74 7.08-3.98 33.63 5.75 35.4 4.87 17.26 3.54 23.01-7.52 23.9-18.15z"
        />
        <path
            id="path22498"
            style="fill-rule:evenodd;stroke:#000000;stroke-width:1px;fill:#d6cd9d"
            d="m552.29 432.1l26.55 1.77 16.82 3.1 23.9 6.64 6.64 0.44 2.21 17.26 1.33 15.05-2.22 8.41 0.89 17.25 2.21 11.95-0.44 25.23 2.21 14.16-21.24 19.91-27.44 5.31-41.6-3.54-23.45-4.42-12.84-3.98 3.99-22.57 3.54-19.03-2.22-5.31 3.55-22.13 3.09-7.08-6.19-6.64-2.22-7.52-2.21-10.62 3.1-7.97 6.2-5.75 21.68-11.95 14.16-7.97z"
        />
        <path
            id="path22500"
            sodipodi:nodetypes="csssssssssssssssssssssssssssssssssssssssssssssssssssssssscccccccsssssssssssssssssssssssssssssssssssssssssssssscsssssssssssssssssssssssssssssssssssssccccccccsssssccssssssssscc"
            style="fill-rule:evenodd;stroke:#000000;stroke-width:1px;fill:#000000"
            d="m513.97 496.1s-0.31-2.88-1.67 4.43c-0.95 5.07-4.65 19.53 0.18 24.64 0.02 0.03 1.61-8.61 2.33-16.33 0.36-3.88-2.06-4.92 0.63-10.8 0.21-0.47 12.77-6.35 27.93-6.22 15.76 0.13 24.31 5.91 34.17 5.88 2.32 0 2.57 21.05 3.49 31.98 0.69 8.11 2.08 6.96 3.13 6.87 0.5-0.04 2.79-1.39 2.92-6.13 0.29-11.09-2.15-31.64-1.69-31.82 18.47-7.13 27.35-15.57 39.95-14.73 7.51 0.49-1.63 21.31 2.27 22.7 10.8 3.86-33.49 26.38-38.72 28.46-6.19 2.45-23.98-3.78-23.79-2.58 0.45 2.84-47.79-11.4-51.82-10.29-1.21 0.33-4.72 7.17-4.85 8.77-1.23 14.47-3.76 37.61-2.17 36.94 2-0.84 2.74-6.49 4.58-18.2 1.36-8.66 3.98-24.42 4.76-24.27 6 1.17 33.77 4.85 47.82 10.5 3.14 1.27 13.43 1.41 16.53 1.38 3.24-0.03 1.39 39.75 4.51 40.43 4.58 0.99-0.26-35.18 5.5-37.9 13.34-6.32 35.47-24.02 36.46-23.23 4.7 3.78 0.14 32.28 3.35 35.55 0.52 0.53-6.79 10.05-16.17 15.61-11.14 6.6-25.02 9.35-29.69 9.05-14.45-0.9-54.04-9.02-58.13-8.13-10.45 2.27-32.11-8.22-35-2.52-6.65 13.11-2.71 10.45-3.67 18.72-0.41 3.57 6.69-3.74 6.01-10.84-0.08-0.92 2.15-3.49 6.34-5.06 2.35-0.89 13.75-0.42 17.28 4.38 6.09 8.26 29.89 7.82 46.35 7.15 5.83-0.23 17.06 3.79 20.36 3.9 2.92 0.11 1.1 19.69 4.84 20.17 5.72 0.73-0.69-21.79 1.75-22 8.07-0.69 19.81-6.06 27.78-11.6 8.15-5.66 10.26-11.5 14.66-12.71 4.99-1.36 11.33 0.11 13.63 0.95 6.08 2.22 1.19 8.71-1.32 11.53-5.59 6.32-0.17 0.4-2.78 1.78-3.78 2-10.59 5.62-17.7 10.73-11.93 8.57-25.06 19.46-35.17 20.23-32.69 2.47-56.45-21.59-52-13.16 0.92 1.76-51.43-8.74-52.01-8.78-4.05-0.27-7.35 8.14-3.15 10.3 2.15 1.09 0.3-7.02 3.29-6.48 14.67 2.61 34.7 7.28 60.74 11.5 8.73 1.42 32.57 8.61 42.28 10.09 0.94 0.15 0.3 17.7 2.5 17.3 1.87-0.35 1.28-17.86 1.77-17.96 16.78-3.5 22.99-12.66 33.35-20.37 13.32-9.89 23.57-16.45 28.88-13.59 2.73 1.47-1.33 4.13 0.9 5.32 0.47 0.26-14.62 15.26-22.87 21.28-18.44 13.43-39.77 24.14-39.77 24.14l-11 1.05-33.18-14.79-46.11-9.67-17.03-3.48-4.86-5.2c1.35-2.03-2.44 7.42 0.41 4.56 3.48 1.77 4.32 5.06 8.51 5.06 9.43 0 23.53 3.32 33.11 4.92 8.92 1.48 30.63 10.77 39.77 13.82 9.59 3.19 19.57 6.6 29.67 6.6 8.55 0 29.18-15.77 35.42-20.45 7.37-5.53 12.25-8.63 19.76-14.27 3.88-2.9 7.37-10.5 11.62-10.5 10.9 0 11.32 3.59 2.03 12.88-5.83 5.84-9.53 5.16-12.72 7.57-4.72 3.58-15.83 13.24-22.04 14.28-7.23 1.2-28.28 15.59-34.47 15.59-11.03 0-16.62-1.96-25.89-3.82-7.75-1.55-24.52 1.53-31.84-1.77-4.48-2.02-21.73-7.61-31.04-9.47-6.89-1.38-14.11-6.79-19.65-10.94-1.08-0.81-4.34-4.53-4.42-6.76-0.09-2.26 2.99-3.02 1.99-3.89-1.48-1.28-7.31 1.71-6.16 6.06 1.3 4.95 9.29 13.09 16.3 14.84 8.54 2.14 15.75 6.86 24.4 8.58 8.42 1.69 16.41 2.15 24.93 4.29 6.16 1.53 11.77-0.92 18.08 0.65 8.58 2.15 20.05 6 29.25 6 11.27 0 16.83-4.4 23.89-9.93 5.06-3.97 8.35-3.36 12.2-7.26 0.83-0.84 12.43-2.82 13.49-3.35 4.26-2.13 11.56-12.01 15.85-12.02 3.83-0.01 16.97-10.77 17.44-13.33 0.62-3.35-0.96-4.48-2.34-8.31-1.81-5.07-0.89-2.87-6.86-7.51-2.22-1.72-5.3-3.29-7.48-6.19-2.32-3.1-1.66-5.84-4.38-7.52-2.71-1.68-10.79-4.74-13.87-6.79-2.89-1.93-2.02-10.06-2.36-12.18-1.07-6.84-3.33-33.58-3.33-37.24 0-9.11 3.09-8.93 0.83-17.34-0.61-2.28-3.17-4.68-5.08-6.48-2.38-2.26-38.6 11.85-39.24 11.92-3.74 0.44 1.76-6.87 13.59-11.64 5.3-2.14 13.3-10.4 19.04-11.59 1.25-0.26 7.28-5.69 8.45-2.9 1.28 3.06-2.32 14.4-1.31 14.73 1.55 0.53 2.52 5.62 3.47 4.11 1.39-2.21 2.44-11.46 2.56-11.3 0.01 0 0.03 0.02 0.03 0.03 0.01 0.02 0.03 0.07 0.03 0.09 0.03 0.25-0.19 0.66-0.75 1.22 3.34-1.75 1.33-16.73-5.62-14.84-4.81 1.3-13.22 8.61-19.63 10.96-6.63 2.44-11.22 6.63-18.34 10.54-0.39 0.22-1.37 0.37-2.57 0.46-0.25 0.02-0.55-2.92-0.85-11.28-0.04-0.93-0.36-4.34 1.78-5.98 2.04-1.58 6.55-1.39 6.52-2.29-0.05-1.26 12.89-9.56 25.96-14.01 1.28-0.43 4.1-4.25 5.63-1.83 2.27 3.59 3.2 14 4.25 13.56 1.41-0.58-0.03-15.51-0.04-15.74-0.05-1.23-1.32-1.63-3.37-1.46-1.15 0.09-68.87-10.29-70.42-9.89-1.03 0.27 27.11-1.02 41.29 4.39 3.01 1.15 13.67 4.19 15.97 5.11 7.74 3.12 3.35 2.92 2.47 3.23-10.5 3.76-23.06 9.86-23.2 9.87-0.13 0-5.39 4.1-12.2 6.22-6.25 1.94-13.77 1.9-20.67 2.28-1.8 0.1-22.39-7.03-24.23-6.9-4.26 0.29-7.21-3.25-9.99-3.81-1.05-0.21-5.56 0.26 1.77-4.93 11.63-8.24 40.62-15.1 39.6-15.32-2.45-0.51-16.57-4.36-30.29 4.23-8.99 5.63-23 15.98-23.07 17.31-0.03 0.61 14.35 5.08 29.95 9.86 8.79 2.69 16.72 2.49 23.92 4.74 3.65 1.14 9.29-2.24 11.91-0.77 3.09 1.73 2.84 8.23 2.83 8.4-0.19 3.69 0.34 5.14 0.14 5.13-1.42-0.02-2.61-0.1-3.03-0.24-2.86-0.92-8.43-3.74-15.39-3-9.55 1.01-14.1-6.09-22.05-5.46-6.2 0.48-9.1-3.15-14.64-2.91-6.74 0.29-9.84-1.87-14.65-1.61-2.81 0.15-2.62 2.6-2.97-0.83-0.51-4.86 7.52-16.37 6.92-15.81l-9.35 8.74-1.75 8.64 1.04 5.6 6.38 7.5 29.81 2.35 37.7 8.32-0.27-8.03-5.4-1.48c-11.32-1.98-8.62 0.22-16.78-2.93-3.21-1.24-28.4-6.14-31.16-6.37-1.72-0.15-13.91-3.8-16.76-1.82-1.9 1.32 5.74 8.13 3.62 9.21-2.88 1.46-1.73 6.69-0.22 9.72 1.21 2.43 2.49 4.6 1.66 5.25zm-33.1 94.87c-0.19 0.28-0.34 0.53-0.41 0.72-0.01 0.04-0.02 0.09-0.03 0.13-0.01 0.02 0 0.07 0 0.09v0.03 0.06c0 0.02 0.02 0.05 0.03 0.07 0.01 0 0.02 0.02 0.03 0.03 0.01 0 0.03-0.01 0.03 0 0.01 0 0.05 0.02 0.06 0.03h0.07l0.22-1.16z"
        />
        <path
            id="path22502"
            style="fill-rule:evenodd;fill:#000000;fill-opacity:.32143"
            d="m557.16 464.85c-2.37-0.09-5.07 3.46-6.2 7.97-1.13 4.53-0.21 9.27-2.21 13.27-2 4.01-3.98 5.33-4.87 9.74-0.77 3.85-2.57 6.75-3.54 10.62-0.75 3.03 0.24 7.68-0.44 11.06-0.15 0.74-0.3 1.48-0.44 2.22-0.6 3-0.89 6.09-0.89 9.29 0 3.69 0.27 7.53-0.44 11.06-0.68 3.4-1.77 6.8-1.77 10.18 0 3.62-0.29 7.67-1.77 10.62-1.39 2.78-2.56 6-3.98 8.85-1.63 3.26-2.66 6.16-2.66 9.74 0 3.61-4.63 4.51-6.64 7.52-1.28 1.93-0.95 7.22-2.21 9.74-1.86 3.73-3.42 5.72-4.42 9.73-0.91 3.62-1.93 6.65-4.87 8.86-1.19 0.88-1.92 2.36-3.1 3.54-17.26-7.97-27.44-14.61-27.44-14.61l-1.33-7.08 3.99-3.54v-4.42l3.54-5.76 2.65-0.44 1.33-8.41 6.64-5.75 10.18-2.21 6.63-41.6v-11.07l1.78-14.16 4.42-7.08-4.42-6.64-3.1-6.63-3.1-8.86-1.33-7.52 4.43-6.19 4.42-3.54 9.74 3.09 16.82 4.43 11.94 3.54"
        />
      </g
      >
      <path
          id="path32207"
          style="fill-rule:evenodd;fill:#000000;fill-opacity:.41964"
          d="m534.97 331.92c-4.13-1.04-22.13 0.65-32.83 2.44-12.22 2.03-22.37 4.96-34.04 7.29-14.97 2.99-26.22 13.24-41.34 17.02-14.82 3.71-23.42 6.34-35.26 15.81-8.73 6.99-20.35 11.84-27.96 19.45-6.76 6.75-22.23 13.33-30.4 19.46-9.23 6.92-12.57 15.71-19.45 24.31-6 7.49-12.08 16.92-17.02 23.1-6.22 7.78-19.21 11.92-26.75 19.46-7.39 7.38-9.77 19.6-12.16 29.18-2.64 10.55-14.42 9.9-6.08 18.23 4.03 4.04 20.41 5.06 25.53 6.08 8.64 1.73 16.59 4.15 24.32 6.08 8.87 2.22 17.89 1.44 26.75 3.65 8.12 2.03 15.94 3.72 23.1 7.3 8.38 4.19 28.11 5.86 35.26 7.29 14.55 2.91 22.33-6.27 30.39-17.02 11.82-15.76 23.89-33.19 32.83-51.07 12.04-24.08 25.27-49.59 44.99-69.3 19.01-19.01 47.19-46.32 42.55-74.17-1.13-6.79-2.43-6.87-2.43-14.59z"
      />
      <path
          id="path23401"
          sodipodi:nodetypes="csssssssssssssssc"
          style="fill-rule:evenodd;fill:#000000;fill-opacity:.41964"
          d="m707.7 414.64c-5.6 3.89-17.81 3.03-27.27 3.03h-36.35c-8.69 0-19.81 1.92-28.28 4.04-8.63 2.15-22.06 1.42-29.68 5.23-7.92 3.96-12.28 18.7-20.63 20.79-9.42 2.36-16.13 3.61-24.97 6.63-9.54 3.25-4.71 2.3-17.63 10.77-5.91 3.88-14.14 0-21.21 0-12.61 0 8.61-33.85 24.24-49.48 14.34-14.34 28.37-27.55 44.43-40.4 14.4-11.52 33.25-17.59 51.51-20.2 12.27-1.75 22.66-3.02 35.34-3.02 10.25 0 19.33 0.45 28.28 4.03 10.25 4.1 17.77 12.51 20.2 22.22 2.05 8.22 1.01 17.72 1.01 26.26 0 3.66 0.27 6.4 1.01 10.1z"
      />
      <path
          id="path25151"
          sodipodi:nodetypes="csssssssssssssssssssssssssssscsssssssssssssssssssssssssscsssssssssssssssssscs"
          style="fill-rule:evenodd;fill:#d6cd9d"
          d="m501.82 492.03c-1.27 2.53-2.61 5.67-3.18 7.95-0.78 3.12-2.93 4.42-4.77 6.88-2.56 3.41-5.62 7.55-7.42 11.13-2.49 4.99-8.58-0.62-11.12-2.65-3.98-3.18-2.12-15.56-2.12-20.13 0-9.35-0.53-18.67-0.53-28.07 0-8.45-16.85-10.16-22.25-12.19-6.57-2.46-13.07-5.93-19.06-9.53-6.68-4 5.26-8.44 7.41-10.59 2.62-2.62 6.42-6.66 10.07-8.48 3.61-1.81 4.29-4.55 7.41-6.89 3.49-2.61 5.2-4.68 7.95-6.88 0.15-0.13 1.04-7.36 1.06-7.42 0.74-2.98 6.92-7.57 9.53-9.53 2.79-2.09 5.69-5.11 7.42-7.42 2.42-3.22 2.24-4.89 5.29-7.94 2.74-2.74 4.02-4.54 6.89-7.42 1.98-1.98 3.51-4.57 5.3-6.35 2.03-2.04 3.94-4.38 5.82-6.89 1.72-2.29 4.31-4.29 6.36-5.83 2.68-2.01 4.14-4.1 5.83-6.35 1.37-1.83 5.26-3.56 6.88-4.77 2.77-2.08 4.36-4.36 6.36-6.36 2.49-2.49 3.9-4.51 6.35-6.35 2.17-1.63 3.84-4.37 5.83-6.36l7.95-7.95c3.07-3.07 7.32-5.51 11.12-7.41 2.98-1.49 4.96-3.54 7.42-4.77 1.46-0.73 1.47-0.29 2.64-0.53 2.22-1.1 9.18 0.75 12.19 0 3.94-0.98 6.76-3.51 11.12-4.24 1.72-0.28 6.67-6.24 7.95-7.94 1.85-2.48 8.35-4.8 10.06-5.83 3.17-1.9 6.56-1.42 10.06-2.12 3.71-0.74 8.41 0 12.19 0h12.18c2.9 0 5.89-0.11 8.48 0.53 3.34 0.84 5.95 1.92 8.47 3.18 2.44 1.22 2.48 3.8 6.36 4.77 3.83 0.96 5.57 1.46 9 3.18 1.86 0.93 5.2 2.57 7.42 4.23 2.09 1.57 4.97 3.29 6.88 4.24 2.02 1.01 3.07 2.86 5.83 4.24 2.91 1.45 3.19 2.92 6.36 3.71 3.49 0.87 9.19 0.53 12.71 0.53 4.82 0 7.09 2.04 9.53 5.29 2.08 2.77 1.84 3.33 2.65 7.42 0.52 2.57 0 5.83 0 8.47 0 2.92 1.06 6.23 1.06 9.54 0 3.82-0.13 7.95-1.06 11.65-0.83 3.33-1.69 7.29-2.65 11.13-0.92 3.68-2.11 7.06-2.11 10.59v12.18c0 3.24 1.25 5.59 0.52 8.48-0.79 3.17-2.11 5.89-2.11 9.53 0 1.73-1.62 2.26-3.18 2.65 0 3.32-6.35 2.25-9.01 4.24-2.42 1.82-6.41 1.06-9.53 1.06-5.58 0-4.67-0.97-7.95-4.24-2.62-2.62-3.41-4.68-6.35-6.89-2.92-2.19-3.17-5.84-1.59-9 1.6-3.2 4.24-3.02 4.24-7.42 0-2.6-4.35-5.43-5.83-7.41-2.43-3.24-5.3-3.97-8.48-6.36-3.52-2.64-5.67-4.31-10.59-5.3-3.67-0.73-7.19-1.79-10.59-2.64-3.68-0.92-9.94-0.49-12.72 1.59-1.89 1.42-6.04 3.28-7.94 4.23-3.45 1.73-7.13 3.04-10.6 4.77-4.15 2.08-6.87 5.3-11.65 5.3-6.43 0-13.77 0.53-19.07 3.71-2.73 1.63-5.63 5.62-7.94 7.94-2.81 2.8-6.09 5.69-9.54 7.42-2.74 1.37-6.08 3.1-9 5.29-1.83 1.37-2.42 1.46-3.71 3.18-2.04 1.53-3.59-2.35-7.95 6.36-0.52 0.31-1.04 0.62-1.57 0.94-1.83 1.09-3.28 3.65-4.77 5.13-1.83 1.83-3.54 3.91-5.5 5.88-1.8 1.79-3.2 3.77-4.77 5.87-1.61 2.14-2.35 4.41-4.77 5.87-1.92 1.15-4.61 4.06-6.24 6.24-0.37 0.49-0.74 0.98-1.1 1.46-1.76 2.35-2.93 4.52-4.41 6.98-1.42 2.36-1.42 4.36-3.3 6.24-2.98 2.97-3.65 8.65-6.24 12.11-2.21 2.94-4.61 6.29-6.24 9.54-0.24 0.49-0.49 0.98-0.73 1.47-1.77 3.53-3.09 6.6-4.91 10.13z"
      />
      <path
          id="path26899"
          sodipodi:nodetypes="csssssssssssssssssssssssssssssssssssssssssssssssssssssssssssssssssssssssssssssssssssssssssssssssssssssssssssssssssssssssssssssssssssssssssssssssssssssssssssssssssssssssssssssssssssssssssssssssssssssssssssssssssssssc"
          style="fill-rule:evenodd;stroke:#000000;stroke-width:.83060px;fill:#000000"
          d="m284.46 311.69c-2.5-0.91-6.34 1.91-9.82 5.39-3 3.01-6.16 6.16-9.32 9.32-3.09 3.09-7.28 4.57-10.3 8.35-2.23 2.78-6.97 3.61-9.81 5.88-3.58 2.87-6.52 6.85-9.82 9.32-3.36 2.53-5.92 6.59-8.34 9.82-2.27 3.03-5.74 3.63-7.36 6.87-1.84 3.68-4.43 6.63-7.36 8.83-4.49 3.36-7.41 5.79-10.79 10.3-2.78 3.71-5.53 4.39-8.83 6.87-2.89 2.16-4.31 4.3-6.87 6.87-2.52 2.52-4.8 3.02-5.89 7.36-1.18 4.73-3.04 7.95-6.38 11.28-3.47 3.47-7.02 3.55-10.79 6.38-4.84 3.63-5.89 7.38-5.89 12.76 0 4.3-2.36 6.91-4.9 10.3-0.42 0.55-0.98 0.98-1.48 1.47-3.44 3.45-4.13 6.31-8.34 8.83-3.67 2.21-5.39 2.9-5.39-1.96 0-4.79 6.58-3.63 9.32-6.38 3.04-3.04 5.5-3.96 6.38-8.34 0.78-3.91 1.72-7.63 2.45-11.28 0.77-3.83 1.72-7 5.4-8.83 3.06-1.54 6.77-2.89 9.32-4.42 2.98-1.79 3.92-4.26 3.92-8.34 0-3.2 3.76-6.44 4.91-9.32 1.06-2.65 9.13-4.57 11.78-5.89 2.76-1.38 4.65-6.04 6.37-8.34 2.47-3.28 5.95-5.43 9.82-7.36 3.85-1.93 7.35-5.88 10.3-8.83 2.93-2.93 4.19-6.64 6.87-9.32 2.87-2.88 3.46-5.91 5.89-8.34 3.16-3.17 10.49-10.99 14.26-12.88 4.19-2.09 4.33 0.21 6.34-3.81 1.6-3.2 26.99-24.51 26.99-28.45v-11.78c0-4.27-3.82-6.96-7.36-7.85-0.81-0.2-1.64-0.32-2.46-0.49-3.62-0.72-31.06 22.88-32.38 25.51-1.64 3.28-4.34 5.33-6.87 7.85-2.97 2.98-5.88 6.05-8.34 9.33-2.55 3.4-6.76 5.9-9.32 9.32-2.42 3.23-5.24 6.02-8.34 8.34-2.29 1.72-5.42 6.93-6.38 9.32-1.2 3-3.11 5.46-4.9 7.85-1.89 2.52-2.31 5.25-4.42 7.36-2.76 2.76-5.38 6-7.85 7.85-2.15 1.61-3.82 4.81-5.89 6.87l-8.34 8.34c-2.39 2.39-4.65 5.87-6.87 8.83-2.34 3.12-5.82 5.48-8.34 8.83-2.57 3.43-3.54 7.09-5.39 10.8-1.26 2.51-7.83 3.53-10.31 5.39-4.4 3.31-5.99-0.47-4.41-4.41 1.22-3.06 6.27-4.8 8.83-7.36 3.27-3.28 4.98-5.06 6.87-8.83 1.71-3.42 7.46-6.07 10.3-8.34 3.99-3.2 7.4-6.44 10.3-10.31 2.39-3.17 5.9-5.4 8.83-8.34 2.72-2.71 3.93-6.21 5.89-8.83 1.72-2.28 2.47-6.9 3.93-9.81 1.67-3.35 2.78-7.04 4.41-10.3 1.94-3.88 6.97-5 9.82-7.85 2.83-2.84 6.19-4.37 9.32-6.87 3.26-2.61 6.46-4.5 8.83-6.87 2.64-2.64 3.45-6.39 6.38-9.32 2.78-2.79 4.95-4.95 7.36-7.36 2.58-2.59 4.47-7.11 6.87-10.31 2.32-3.09 26.6-20.74 28.22-23.98 1.25-2.5-4.83-5.57-6.26-5.54-3.11 0.07-8.14 5.29-9.32 5.89-3.8 1.9-23.55 18.48-26.87 20.69-4.2 2.8 4.41-1.04 0.49 0.92-2.04 1.02-17.51 14.95-18.65 17.23-1.64 3.28-4.91 6.27-7.36 9.33-2.06 2.58-3.95 4.93-6.37 7.35-2.51 2.51-5.41 6.57-7.36 9.82-1.71 2.83-4.58 6.05-6.87 8.34-2.98 2.98-5.51 5.78-8.34 9.32-2.06 2.57-2.82 6.04-4.91 8.83-2.45 3.26-4.93 6.58-7.36 9.81-2.46 3.29-5.93 8.61-9.32 10.31-3.59 1.79-5.74 5.41-8.34 7.36-2.98 2.23-5.14 3.46-6.38-1.48-0.53-2.11 6.41-5.11 8.34-5.88 3.72-1.49 7.04-5.29 7.85-9.33 0.61-3.04 3.89-5.33 4.91-7.35 2.18-4.36 5.7-5.22 8.83-8.35 2.33-2.32 4.29-4.58 6.38-7.35 2.37-3.16 3.72-6.44 5.88-9.33 1.6-2.12 5.17-4.67 7.36-6.87 2.45-2.44 2.9-4.86 5.89-7.85 1.91-1.9 1.79-4.67 3.44-6.86 1.78-2.38 5.32-5.12 7.85-6.38 3.4-1.7 5.94-5.15 8.34-8.34 2.09-2.79 5.47-6.02 8.48-8.43 2.79-2.23 4.7-3.1 6.73-5.8 2.14-2.86 4.59-4.77 5.88-7.36 1.39-2.78 24.45-19.97 26.87-21.18 2.3-1.15-3.9-5.14-4.41-5.4-3.38-1.69-26.08 19.31-27.85 21.67-2.16 2.88-6.21 5-9.32 6.87-3.38 2.03-7.15 3.52-10.31 5.89-3.64 2.73-5.75 5.87-8.34 9.32-2.76 3.68-5.09 5.88-7.85 9.32-2.78 3.48-4.93 6.01-8.83 8.34-3.13 1.88-6.22 4.32-8.34 7.85-2.19 3.66-5.31 6.92-7.85 10.31-2.32 3.08-4.65 6.85-6.38 10.3-1.54 3.08-4.21 5.94-6.38 8.83-2.17 2.9-3.14 5.33-5.39 8.34-2.62 3.49-5.92 4.19-9.33 5.89-3.46 1.73-6.86 5.44-6.86 0.49 0-2.82 6.33-5.48 8.83-7.36 3.77-2.83 7.15-3.51 9.32-7.85 1.59-3.18 2.31-6.73 4.41-8.83 2.52-2.51 4.09-6.04 6.87-8.83 2.98-2.98 4.91-5.07 7.36-8.34 2.33-3.11 4.2-5.18 6.87-7.85 2.64-2.64 5.45-4.66 7.85-7.85 2.34-3.11 6.52-6.47 7.36-9.82 0.66-2.64 7.18-7.83 8.83-8.83 3.09-1.85 6.07-5.08 7.85-6.87 2.69-2.68 5.19-4.7 7.85-7.35 2.09-2.09 4.82-3.84 6.87-5.89 2.6-2.6 6.42-4.14 8.83-7.36 5.86-7.81 6.43-6.62 9.81-9.32 3.04-2.43 6.54-5.27 9.33-7.36 3.56-2.67 6.4-5.31 9.81-7.36 3.86-2.32 8.41-5.33 11.77-7.85 2.99-2.24 7.77-5.13 10.8-5.89 4.39-1.1 7.04-3.84 11.28-4.91 6.08-1.52 12.14-2.45 18.65-2.45h18.64 14.72 15.21c4.43 0 9.17 0.49 13.74 0.49 4.04 0 7.51 2 11.28 2.95 0.32 0.07 0.65 0 0.98 0 3.68 0 9.39 1.76 12.27 3.92 3.65 2.74 8.98 4.74 13.24 6.87 4.1 2.04 7.76 4.77 11.78 6.38 4.12 1.64 9.6 4.13 13.25 6.87 2.94 2.2 7.65 1.27 10.79 4.41 2.3 2.3 2.82 3.32 3.43 6.38 0.57 2.84-7-3.32-8.83-4.42-3.44-2.06-6.64-4.67-10.3-6.86-4.2-2.53-8.34-3.14-12.76-4.91-4.01-1.61-8.83-3.8-12.26-6.38-4.48-3.36-9.13-4.32-14.23-6.87-5.75-2.87-10.92-3.37-17.17-4.41-4.84-0.81-16.68-1.31-17.66-1.48-4.45-0.74-8.67-1.47-13.25-1.47h-12.76-13.24c-4.66 0-9.18-0.56-13.25 1.47-3.19 1.6-7.44 1.62-10.8 2.46-3.75 0.94-7.07 2.69-10.79 3.43-3.86 0.77-5.24 3.25-3.92 5.89 0.98 1.96 8.44 0.98 10.3 0.98 4.86 0 9.42-6.09 14.23-6.09 3.12 0 7.84 1.09 11.28-0.29 6-2.39 12.31-2.04 18.65-2.94 5.9-0.85 12.66 0 18.64 0 1.75 0 30.37 0.65 35.51 1.35 11.11 1.5 1.16 3.65-2.64 2.89-5.35-1.07-9.94-1.38-15.79-1.38-4.41 0-22.68-0.58-27.1-0.58-5.72 0 4.72-0.35-1.01-0.35-3.76 0-18.04 0.1-20.66 2.72-1.33 1.33-13.61 1.88-18.27 2.31-5.51 0.5-3.52 6.31-3.52 8.25 0 3.03-0.08 7.05 0.49 9.32 0.36 1.45 11.89-5.84 13.25-6.38 5.88-2.35 12.13-0.76 18.15-1.96 6.54-1.31 14.89 0 21.59 0 7.04 0 13.83 0.34 20.61 1.47 6.86 1.14 14.1 1.33 20.6 3.93 4.86 1.94 7.35 4.65 11.78 6.87 4.59 2.29 8.53 5.8 12.75 8.34 4.36 2.61 9.86 2.95 14.72 3.92 5.41 1.08 9.06 5.7 13.74 6.87 3.34 0.84 6.93 2.58 8.34 5.4 2.75 5.5-4.74 3.79-6.87 2.94-4.55-1.82-7.92-6.22-12.26-8.83-3.86-2.32-8.22-4.85-12.27-6.87-4.89-2.44-11.99-5.12-15.7-8.83-2.68-2.68-11.26-4.51-14.72-5.89-5.22-2.09-10.49-2.94-16.19-2.94-5.56 0-11.06-1.17-16.19-2.46-4.45-1.11-10.59 0-15.21 0h-18.64c-3.85 0-10.13 0.66-14.23 1.48-3.43 0.68-4.24 4.81-7.36 6.37-2.87 1.44-4.42 4.03-4.42 7.36 0 3.55 1.39 6.88 1.97 10.31 0.63 3.8-0.09 7.04 3.92 7.85 5.12 1.02 9.03-2.75 13.74-3.93 5.85-1.46 10.91-1.96 17.17-1.96h19.63 17.66c6.53 0 13.75 3.63 20.11 4.91 4.94 0.98 9.34 2.7 14.23 3.92 4.85 1.21 8.63 3.98 13.25 4.91 6.54 1.3 12.93 3.89 16.19 9.32 2.85 4.75-17.8-1.85-19.63-2.94-6.25-3.76-15.62-4.5-22.56-5.89-10.74-2.15-22-4.53-32.88-5.89-7.4-0.92-14.47 0.49-21.58 0.49-5.48 0-11.13 0.49-16.69 0.49-5.34 0-8.64 1.3-13.24 2.45-3.73 0.94-4.78 3.9-8.83 4.91-3.54 0.89-8.69 3.78-11.29 6.38-1.63 1.63-2.1 2.59-4.41 4.91z"
      />
      <g
          id="g22504"
          transform="matrix(.77161 0 0 .76975 -348.91 30.266)"
        >
        <path
            id="path22506"
            style="fill-rule:evenodd;stroke:#000000;stroke-width:1px;fill:#baab5a"
            d="m632.39 555.57l10.18 1.77 7.97 4.43-0.45 7.08 11.51 7.96 7.52 7.08-1.77 7.53-23.45 15.49-10.18 7.52-12.84 3.98-24.33 14.16-17.26-1.32-15.49-3.1-15.49-0.44-15.49-1.33-37.62-11.06-17.7-12.84-0.44-5.75 4.87-2.66-0.45-5.75 3.54-5.31 4.87-2.21 2.22-9.74 7.08-3.98 33.63 5.75 35.4 4.87 17.26 3.54 23.01-7.52 23.9-18.15z"
        />
        <path
            id="path22508"
            style="fill-rule:evenodd;stroke:#000000;stroke-width:1px;fill:#d6cd9d"
            d="m552.29 432.1l26.55 1.77 16.82 3.1 23.9 6.64 6.64 0.44 2.21 17.26 1.33 15.05-2.22 8.41 0.89 17.25 2.21 11.95-0.44 25.23 2.21 14.16-21.24 19.91-27.44 5.31-41.6-3.54-23.45-4.42-12.84-3.98 3.99-22.57 3.54-19.03-2.22-5.31 3.55-22.13 3.09-7.08-6.19-6.64-2.22-7.52-2.21-10.62 3.1-7.97 6.2-5.75 21.68-11.95 14.16-7.97z"
        />
        <path
            id="path22510"
            sodipodi:nodetypes="csssssssssssssssssssssssssssssssssssssssssssssssssssssssscccccccsssssssssssssssssssssssssssssssssssssssssssssscsssssssssssssssssssssssssssssssssssssccccccccsssssccssssssssscc"
            style="fill-rule:evenodd;stroke:#000000;stroke-width:1px;fill:#000000"
            d="m513.97 496.1s-0.31-2.88-1.67 4.43c-0.95 5.07-4.65 19.53 0.18 24.64 0.02 0.03 1.61-8.61 2.33-16.33 0.36-3.88-2.06-4.92 0.63-10.8 0.21-0.47 12.77-6.35 27.93-6.22 15.76 0.13 24.31 5.91 34.17 5.88 2.32 0 2.57 21.05 3.49 31.98 0.69 8.11 2.08 6.96 3.13 6.87 0.5-0.04 2.79-1.39 2.92-6.13 0.29-11.09-2.15-31.64-1.69-31.82 18.47-7.13 27.35-15.57 39.95-14.73 7.51 0.49-1.63 21.31 2.27 22.7 10.8 3.86-33.49 26.38-38.72 28.46-6.19 2.45-23.98-3.78-23.79-2.58 0.45 2.84-47.79-11.4-51.82-10.29-1.21 0.33-4.72 7.17-4.85 8.77-1.23 14.47-3.76 37.61-2.17 36.94 2-0.84 2.74-6.49 4.58-18.2 1.36-8.66 3.98-24.42 4.76-24.27 6 1.17 33.77 4.85 47.82 10.5 3.14 1.27 13.43 1.41 16.53 1.38 3.24-0.03 1.39 39.75 4.51 40.43 4.58 0.99-0.26-35.18 5.5-37.9 13.34-6.32 35.47-24.02 36.46-23.23 4.7 3.78 0.14 32.28 3.35 35.55 0.52 0.53-6.79 10.05-16.17 15.61-11.14 6.6-25.02 9.35-29.69 9.05-14.45-0.9-54.04-9.02-58.13-8.13-10.45 2.27-32.11-8.22-35-2.52-6.65 13.11-2.71 10.45-3.67 18.72-0.41 3.57 6.69-3.74 6.01-10.84-0.08-0.92 2.15-3.49 6.34-5.06 2.35-0.89 13.75-0.42 17.28 4.38 6.09 8.26 29.89 7.82 46.35 7.15 5.83-0.23 17.06 3.79 20.36 3.9 2.92 0.11 1.1 19.69 4.84 20.17 5.72 0.73-0.69-21.79 1.75-22 8.07-0.69 19.81-6.06 27.78-11.6 8.15-5.66 10.26-11.5 14.66-12.71 4.99-1.36 11.33 0.11 13.63 0.95 6.08 2.22 1.19 8.71-1.32 11.53-5.59 6.32-0.17 0.4-2.78 1.78-3.78 2-10.59 5.62-17.7 10.73-11.93 8.57-25.06 19.46-35.17 20.23-32.69 2.47-56.45-21.59-52-13.16 0.92 1.76-51.43-8.74-52.01-8.78-4.05-0.27-7.35 8.14-3.15 10.3 2.15 1.09 0.3-7.02 3.29-6.48 14.67 2.61 34.7 7.28 60.74 11.5 8.73 1.42 32.57 8.61 42.28 10.09 0.94 0.15 0.3 17.7 2.5 17.3 1.87-0.35 1.28-17.86 1.77-17.96 16.78-3.5 22.99-12.66 33.35-20.37 13.32-9.89 23.57-16.45 28.88-13.59 2.73 1.47-1.33 4.13 0.9 5.32 0.47 0.26-14.62 15.26-22.87 21.28-18.44 13.43-39.77 24.14-39.77 24.14l-11 1.05-33.18-14.79-46.11-9.67-17.03-3.48-4.86-5.2c1.35-2.03-2.44 7.42 0.41 4.56 3.48 1.77 4.32 5.06 8.51 5.06 9.43 0 23.53 3.32 33.11 4.92 8.92 1.48 30.63 10.77 39.77 13.82 9.59 3.19 19.57 6.6 29.67 6.6 8.55 0 29.18-15.77 35.42-20.45 7.37-5.53 12.25-8.63 19.76-14.27 3.88-2.9 7.37-10.5 11.62-10.5 10.9 0 11.32 3.59 2.03 12.88-5.83 5.84-9.53 5.16-12.72 7.57-4.72 3.58-15.83 13.24-22.04 14.28-7.23 1.2-28.28 15.59-34.47 15.59-11.03 0-16.62-1.96-25.89-3.82-7.75-1.55-24.52 1.53-31.84-1.77-4.48-2.02-21.73-7.61-31.04-9.47-6.89-1.38-14.11-6.79-19.65-10.94-1.08-0.81-4.34-4.53-4.42-6.76-0.09-2.26 2.99-3.02 1.99-3.89-1.48-1.28-7.31 1.71-6.16 6.06 1.3 4.95 9.29 13.09 16.3 14.84 8.54 2.14 15.75 6.86 24.4 8.58 8.42 1.69 16.41 2.15 24.93 4.29 6.16 1.53 11.77-0.92 18.08 0.65 8.58 2.15 20.05 6 29.25 6 11.27 0 16.83-4.4 23.89-9.93 5.06-3.97 8.35-3.36 12.2-7.26 0.83-0.84 12.43-2.82 13.49-3.35 4.26-2.13 11.56-12.01 15.85-12.02 3.83-0.01 16.97-10.77 17.44-13.33 0.62-3.35-0.96-4.48-2.34-8.31-1.81-5.07-0.89-2.87-6.86-7.51-2.22-1.72-5.3-3.29-7.48-6.19-2.32-3.1-1.66-5.84-4.38-7.52-2.71-1.68-10.79-4.74-13.87-6.79-2.89-1.93-2.02-10.06-2.36-12.18-1.07-6.84-3.33-33.58-3.33-37.24 0-9.11 3.09-8.93 0.83-17.34-0.61-2.28-3.17-4.68-5.08-6.48-2.38-2.26-38.6 11.85-39.24 11.92-3.74 0.44 1.76-6.87 13.59-11.64 5.3-2.14 13.3-10.4 19.04-11.59 1.25-0.26 7.28-5.69 8.45-2.9 1.28 3.06-2.32 14.4-1.31 14.73 1.55 0.53 2.52 5.62 3.47 4.11 1.39-2.21 2.44-11.46 2.56-11.3 0.01 0 0.03 0.02 0.03 0.03 0.01 0.02 0.03 0.07 0.03 0.09 0.03 0.25-0.19 0.66-0.75 1.22 3.34-1.75 1.33-16.73-5.62-14.84-4.81 1.3-13.22 8.61-19.63 10.96-6.63 2.44-11.22 6.63-18.34 10.54-0.39 0.22-1.37 0.37-2.57 0.46-0.25 0.02-0.55-2.92-0.85-11.28-0.04-0.93-0.36-4.34 1.78-5.98 2.04-1.58 6.55-1.39 6.52-2.29-0.05-1.26 12.89-9.56 25.96-14.01 1.28-0.43 4.1-4.25 5.63-1.83 2.27 3.59 3.2 14 4.25 13.56 1.41-0.58-0.03-15.51-0.04-15.74-0.05-1.23-1.32-1.63-3.37-1.46-1.15 0.09-68.87-10.29-70.42-9.89-1.03 0.27 27.11-1.02 41.29 4.39 3.01 1.15 13.67 4.19 15.97 5.11 7.74 3.12 3.35 2.92 2.47 3.23-10.5 3.76-23.06 9.86-23.2 9.87-0.13 0-5.39 4.1-12.2 6.22-6.25 1.94-13.77 1.9-20.67 2.28-1.8 0.1-22.39-7.03-24.23-6.9-4.26 0.29-7.21-3.25-9.99-3.81-1.05-0.21-5.56 0.26 1.77-4.93 11.63-8.24 40.62-15.1 39.6-15.32-2.45-0.51-16.57-4.36-30.29 4.23-8.99 5.63-23 15.98-23.07 17.31-0.03 0.61 14.35 5.08 29.95 9.86 8.79 2.69 16.72 2.49 23.92 4.74 3.65 1.14 9.29-2.24 11.91-0.77 3.09 1.73 2.84 8.23 2.83 8.4-0.19 3.69 0.34 5.14 0.14 5.13-1.42-0.02-2.61-0.1-3.03-0.24-2.86-0.92-8.43-3.74-15.39-3-9.55 1.01-14.1-6.09-22.05-5.46-6.2 0.48-9.1-3.15-14.64-2.91-6.74 0.29-9.84-1.87-14.65-1.61-2.81 0.15-2.62 2.6-2.97-0.83-0.51-4.86 7.52-16.37 6.92-15.81l-9.35 8.74-1.75 8.64 1.04 5.6 6.38 7.5 29.81 2.35 37.7 8.32-0.27-8.03-5.4-1.48c-11.32-1.98-8.62 0.22-16.78-2.93-3.21-1.24-28.4-6.14-31.16-6.37-1.72-0.15-13.91-3.8-16.76-1.82-1.9 1.32 5.74 8.13 3.62 9.21-2.88 1.46-1.73 6.69-0.22 9.72 1.21 2.43 2.49 4.6 1.66 5.25zm-33.1 94.87c-0.19 0.28-0.34 0.53-0.41 0.72-0.01 0.04-0.02 0.09-0.03 0.13-0.01 0.02 0 0.07 0 0.09v0.03 0.06c0 0.02 0.02 0.05 0.03 0.07 0.01 0 0.02 0.02 0.03 0.03 0.01 0 0.03-0.01 0.03 0 0.01 0 0.05 0.02 0.06 0.03h0.07l0.22-1.16z"
        />
        <path
            id="path22512"
            style="fill-rule:evenodd;fill:#000000;fill-opacity:.32143"
            d="m557.16 464.85c-2.37-0.09-5.07 3.46-6.2 7.97-1.13 4.53-0.21 9.27-2.21 13.27-2 4.01-3.98 5.33-4.87 9.74-0.77 3.85-2.57 6.75-3.54 10.62-0.75 3.03 0.24 7.68-0.44 11.06-0.15 0.74-0.3 1.48-0.44 2.22-0.6 3-0.89 6.09-0.89 9.29 0 3.69 0.27 7.53-0.44 11.06-0.68 3.4-1.77 6.8-1.77 10.18 0 3.62-0.29 7.67-1.77 10.62-1.39 2.78-2.56 6-3.98 8.85-1.63 3.26-2.66 6.16-2.66 9.74 0 3.61-4.63 4.51-6.64 7.52-1.28 1.93-0.95 7.22-2.21 9.74-1.86 3.73-3.42 5.72-4.42 9.73-0.91 3.62-1.93 6.65-4.87 8.86-1.19 0.88-1.92 2.36-3.1 3.54-17.26-7.97-27.44-14.61-27.44-14.61l-1.33-7.08 3.99-3.54v-4.42l3.54-5.76 2.65-0.44 1.33-8.41 6.64-5.75 10.18-2.21 6.63-41.6v-11.07l1.78-14.16 4.42-7.08-4.42-6.64-3.1-6.63-3.1-8.86-1.33-7.52 4.43-6.19 4.42-3.54 9.74 3.09 16.82 4.43 11.94 3.54"
        />
      </g
      >
      <path
          id="path32201"
          style="fill:#000000"
          d="m142.64 498.86c8.29-0.13 16.44 0.39 24.4 2.77 7.44 2.13 15.27 2.16 22.72 4.24 7.65 2.72 15.24 5.51 23.06 7.75 8.2 2.68 16.59 4.74 24.83 7.27 6.96 0.77 13.56 3.21 20.42 4.47 7.18 1.26 14.39 2.27 21.57 3.61 8.51 1.78 17.23 1.69 25.76 3.23 6.6 1.81 13.22 2.98 20.01 3.54 7.78 2.02 15.81 2.74 23.56 4.82 6.63 2.44 12.72 6.12 19.13 9.06 3.92 2.12 8.19 3.09 12.42 4.33l-13.2 9.06c-4.25-1.27-8.46-2.58-12.45-4.58-6.33-2.98-12.29-6.83-19.02-8.91-7.68-1.97-15.6-2.88-23.33-4.6-6.85-0.43-13.41-2.07-20.07-3.65-8.52-1.58-17.28-1.27-25.74-3.29-7.2-1.26-14.44-2.13-21.6-3.54-6.89-1.53-13.65-3.42-20.6-4.62-8.2-2.46-16.46-4.76-24.62-7.33-7.85-2.25-15.49-5.01-23.19-7.66-7.48-1.93-15.33-1.89-22.7-4.3-8-2.16-16.16-2.74-24.44-2.17l13.08-9.5z"
      />
      <path
          id="path32203"
          style="fill:#000000"
          d="m467.25 323.98c3.34 0.65 6.8 0.66 10.19 0.69 4.71-0.3 9.28 0.67 13.82 1.78 4.99 0.65 9.74 2.42 14.67 3.31 5.59 0.47 11.19 0.96 16.81 1.11 3.63 0.35 7.36-0.38 10.97 0.12 0.63 0.15 1.28 0.23 1.92 0.34l-3.03 2.11c-0.64-0.09-1.27-0.19-1.9-0.34-3.56-0.39-7.18 0.05-10.75-0.21-5.65-0.12-11.31-0.67-16.94-1.09-4.89-1.03-9.66-2.66-14.63-3.36-4.54-1.03-9.08-2.03-13.78-1.71-3.47-0.02-6.94-0.15-10.38-0.55l3.03-2.2z"
      />
      <path
          id="path32205"
          style="fill:#000000"
          d="m437.02 305.87c2.09 0.97 4.34 1.73 6.6 2.24 2.99 0.48 5.85 1.4 8.46 2.92 3.85 2.17 7.79 4.14 9.51 8.45 0.7 2.79 1.67 5.2 4.05 6.84 0.34 0.21 0.73 0.23 1.1 0.32l-3.03 2.11c-0.4-0.12-0.82-0.18-1.17-0.43-2.4-1.74-3.24-4.31-4.04-7.12-1.69-4.22-5.62-6.19-9.47-8.2-2.58-1.5-5.42-2.36-8.36-2.84-2.34-0.56-4.69-1.3-6.85-2.33l3.2-1.96z"
      />
      <path
          id="path22526"
          sodipodi:nodetypes="cssssssssssssssssssssssssssssssssssssssssssssssssssssssssssssssssssssssssssssssssssssssssssssssssssssssssssssssssssssssssssssssssssssssssssssssssssssssssssssssssssssssssssssssssssssssssssssssssssssssssssssssssssssssssssssssssssssssssssssssssssssssssssssssssssssssssssssssssssssssssssssssssssssssssssssssssc"
          style="fill-rule:evenodd;stroke:#000000;stroke-width:.83060px;fill:#000000"
          d="m600.49 386.27c-4.27 0.06-7.85 4.79-10.13 9.35-1.35 2.69-10.11 4.15-12.85 5.06-4.22 1.41-6 4.05-8.96 7.01-2.99 2.99-5.24 6.41-8.18 9.35l-1.56 1.56c-2.96 2.96-5.54 5.92-8.18 8.57-2.88 2.88-5.95 6.37-8.18 9.35-2.53 3.37-5.56 7.12-8.57 10.12-2.72 2.72-4.43 5.96-7.4 8.18-2.98 2.24-3.9 8.19-6.62 10.91-2.12 2.12-4.08 6.2-5.45 8.96-1.43 2.84-3.37 5.7-5.46 7.79-1.65 1.65-2.61 5.37-3.11 7.4l-0.39 1.56c-0.73 2.9-2.94 4.7-4.29 7.4-1.22 2.44-2.96 4.76-3.89 6.62-1.24 2.47-3.08 5.03-4.68 6.23-0.44 0.33-0.78 0.78-1.17 1.17-1.04 1.05-0.35-3.15 1.17-4.67 1.95-1.95 2.79-4.01 3.9-6.24 1.03-2.05 1.77-3.59 2.33-5.84 0.67-2.65 2.07-5.15 2.73-7.79 1.02-4.07 2.6-5.49 5.07-8.57 1.29-1.62 1.79-5.14 2.72-7.01 1.36-2.71 4.51-4.32 6.23-6.62 2.03-2.7 2.72-5.01 3.51-8.18 0.73-2.91 3.31-5.4 5.45-7.01 2.34-1.76 4.4-4.91 5.46-7.01 1.2-2.42 2.63-4.11 3.89-6.62 1.35-2.71 5.24-4.85 7.4-7.02 2.36-2.36 3.6-4.07 5.07-7.01 1.28-2.56 3.53-5.28 5.84-7.01 2.82-2.11 5.53-3.19 7.79-5.45 2.03-2.03 4.7-3.53 6.62-5.46 1.97-1.96 3.64-3.41 5.84-5.06 2.11-1.58 4.17-3 6.24-5.06 2.02-2.03 4.71-3.74 7.01-5.46 2.26-1.7 4.42-3.25 6.23-5.06 1.92-1.92 4.13-2.57 5.84-4.28 2.2-2.2 1.95-5.45 1.95-8.57v-8.57c0-4.25-3.53-3.66-6.23-3.12-2.36 0.47-7.17 3.43-9.35 5.06-2.73 2.05-4.88 4.83-7.79 7.02-2.76 2.07-3.76 3.45-5.84 6.23-2.64 3.51-6.05 5.98-8.57 9.35-1.94 2.57-4.8 5.18-6.63 7.01-2.05 2.06-4.36 5.22-5.84 8.18-1.05 2.1-4.78 4.89-7.01 6.23-2.71 1.63-4.05 4.62-5.84 7.01-2.04 2.72-3.2 5.15-5.84 7.79-1.74 1.73-4.21 4.52-5.46 7.01-0.8 1.61-3.07 3.46-4.28 4.68-2.17 2.16-4.01 4.36-5.07 7.01-1.36 3.41-3.06 5.25-3.89 8.57-0.8 3.19-2.07 4.92-3.51 7.79-1.45 2.91-2.86 6.1-4.28 8.96-1.44 2.86-2.02 5.68-3.9 8.18-1.96 2.61-3.2 5.63-4.67 8.57-1.51 3.01-3.6 5.63-5.06 8.57-1.65 3.28-5.06 3.54-6.24-1.17-0.11-0.44 6.09-6.09 6.62-6.62 2.35-2.35 3.64-5.21 4.29-7.8 0.62-2.46 3.9-4.3 4.67-7.4 0.57-2.25 1.76-4.69 2.34-7.01 0.65-2.6 1.39-4.63 2.34-7.01 0.95-2.37 2.2-4.35 3.11-6.62 1.04-2.59 1.84-5.17 3.51-7.4 0.17-0.23 0.26-0.52 0.39-0.78 1.22-2.45 2.9-4.78 4.28-6.62 1.71-2.28 3.74-4.12 5.85-6.23 1.97-1.98 3.92-3.54 6.23-5.85 2.46-2.46 3.2-3.93 3.89-7.4 0.48-2.37 2.37-4.11 4.68-5.84 2.8-2.1 4.24-4.63 6.62-7.01 1.69-1.69 3.46-3.46 5.06-5.07 1.98-1.98 2.57-4.72 4.29-7.01 1.85-2.46 2.97-5.16 4.28-7.79 1.41-2.8 4.74-4.35 7.01-6.62 2.15-2.14 5.61-4.05 7.4-5.84 2.36-2.35 4.71-3.58 6.24-6.62 0.95-1.91 6.43-4.19 8.18-5.07 3.34-1.67 4.66-3.11 7.79-3.89 2.34-0.59 3.74-1.65 4.67-3.51 1.16-2.31 0-6.37 0-8.96v-7.79-7.4-8.57c0-3.38 0.12-5.43-1.95-8.18-2.06-2.75-4.1-2.68-7.79-1.94-2.06 0.41-5.62 4.06-7.01 5.45-1.6 1.6-7.58 5.3-9.74 5.84-2.34 0.59-4.06 5.29-5.84 6.62-2.88 2.16-3.98 6.3-7.01 8.57-2.5 1.87-4.06 6.79-5.84 8.57-2.16 2.16-4.1 4.49-6.23 6.62-2.49 2.49-5.27 7.02-7.02 10.52-0.26 0.52-0.52 1.04-0.77 1.56-1.66 3.31-4.3 6.51-6.24 9.74-1.43 2.38-4.04 5.5-5.06 8.57-0.78 2.34-4.71 5.09-6.62 7.01-2.17 2.16-4.47 6.48-6.62 9.35-2.29 3.04-4.75 5.93-7.02 8.95-2.52 3.37-4.1 7.17-6.62 10.52-2.25 3-4.67 5.84-7.4 8.57-2.19 2.19-4.54 5.41-6.62 8.18-2.22 2.96-5.96 4.41-8.18 6.62-2.36 2.37-4.77 2.9-7.79 3.51-3.21 0.64-1.87-0.49 0.39-3.51 2.35-3.13 3.64-4.93 7.01-6.62 2.1-1.05 4.62-4.62 6.23-6.23 2.74-2.74 4.46-6.4 7.01-8.96 1.68-1.68 3.27-4.35 4.68-6.23 2.13-2.85 4.02-5.2 6.62-7.79 2.27-2.27 5.22-3.44 6.62-6.24 1.53-3.04 4.05-5.76 5.46-8.56 1.43-2.87 3.35-5.62 5.06-8.18 1.92-2.88 2.8-5.84 4.67-8.96 1.8-2.99 3.73-5.7 5.46-8.57 1.59-2.65 2.67-4.62 4.67-6.62 3.23-3.23 3.71-6.15 7.79-8.18 2.03-1.02 4.82-4.75 6.23-6.63 2.12-2.83 4.09-4.87 6.24-7.01 2.12-2.12 4.04-4.17 6.62-6.23 2.71-2.17 5.64-3.09 6.23-6.62 0.54-3.26 2.94-5.67 5.06-7.79 2.58-2.57 4.88-2.94 7.4-5.46 1.89-1.88 5.75-2.67 8.18-3.89 2.1-1.05-4.67-0.39-7.01-0.39-3.64 0-7.02 0.08-10.51 0.78-3.41 0.68-5.25 2.52-8.18 4.28-2.67 1.6-4.07 4.06-6.24 6.24-2.23 2.23-4.16 3.63-7.01 5.06-2.91 1.46-5.32 1.52-7.4 4.28-1.65 2.2-4.48 3.32-6.62 5.46-2.1 2.09-2.79 3.96-4.67 5.84-2.07 2.07-3.6 4.17-5.07 6.62-1.45 2.43-3.63 4.02-5.45 5.85-2.28 2.27-4.41 4.41-6.62 6.62-2.55 2.55-4.13 5.29-6.63 7.79-2.26 2.26-4.24 4.64-6.62 7.01-2.53 2.53-4.5 5.36-6.62 8.18-2.02 2.69-4.12 5.53-6.62 7.4-2.79 2.09-5.56 5.89-7.4 8.96-0.34 0.55-0.78 1.04-1.17 1.56-2.27 3.02-3.53 6.25-6.23 8.95-2.5 2.5-4.11 4.96-6.23 7.8-2.18 2.89-4.23 5.61-6.24 8.95-1.85 3.08-5.21 5.27-7.4 8.18-2.11 2.82-4.78 5.73-6.62 8.18-2.05 2.73-6.28 2.34-9.35 2.34-4.38 0-6.68-0.21-8.57-2.73-1.13-1.51 6.57-5.56 7.4-6.23 2.92-2.33 5.99-3.85 8.96-6.23 2.73-2.18 5.96-3.98 8.96-6.23 3.08-2.31 5.59-7.21 7.79-10.52 1.83-2.74 2.63-4.97 5.07-7.4 2.38-2.38 4.11-5.36 6.23-8.18 1.57-2.1 3.75-4.14 5.45-5.84 2.34-2.35 3.91-4.82 5.84-7.4 2.19-2.92 2.58-5.64 5.46-7.79 2.64-1.99 4.69-4.69 7.01-7.02 2.38-2.37 3.62-4.76 6.62-7.01 2.62-1.96 5.28-3.54 6.62-6.23 1.1-2.2 6.82-4.58 8.57-5.45 3.24-1.62 6.49-4.63 8.57-7.4 2.01-2.68 4.35-5.13 7.01-7.79 2.29-2.29 0.83-5.09 3.9-6.62 2.51-1.26 5.37-4.6 7.01-6.24 2.32-2.32 5.83-4.47 8.18-6.23 2.51-1.89 5.85-3.52 7.79-5.45 2.17-2.18 6.24-3.71 8.96-5.07 2.12-1.06 6.07 0.32 7.79 1.17 2.85 1.43 6.14 1.04 7.79-1.17s6.42-4.16 8.96-4.67c2.32-0.46 5.03-3.5 8.18-4.29 3.68-0.92 4.15-0.72 6.23-3.5 1.92-2.56 3.78-4.42 6.62-5.84 2.6-1.31 5.95-1.17 8.96-1.17 2.83 0 5.89 0.28 8.57-0.39l1.56-0.39c3.88-0.97 6.74-1.22 10.9-0.39 2.89 0.58 5.95 0.78 8.96 0.78 3.42 0 4.34 2.34 7.79 2.34 2.91 0 6.56 1.1 8.57 3.11 1.56 1.56 3.79 2.99 5.84 3.51 2.75 0.68 5.33 1.1 7.79 2.33 2.09 1.05 3.45 3.87 5.85 5.07 2.85 1.42 5.35 2.23 7.79 4.67 1.56 1.57 3.42 1.01 5.06 3.9 0.93 1.62 7.47-0.01 6.51 0.28-1.22 0.36-9.91 2.11-10.79 1.66-2.29-1.14-4.26-2.7-5.85-4.28-1.82-1.82-4.23-3.46-6.23-5.45-2.18-2.19-4.27-2.53-7.01-3.9-3.45-1.72-5.35-1.87-8.57-4.28-2.57-1.93-3.94-2.82-7.4-3.51-2.99-0.6-5.79-0.78-8.96-0.78h-7.79c-4.4 0-9.3-0.78-14.02-0.78-4.41 0-8.64 0.78-12.86 0.78-1.98 0-5.26 2.69-6.62 3.51-2.31 1.39-3.29 2.51-5.06 4.28-1.64 1.64-5.03 2.32-7.01 3.51-3 1.8-6.15 3.25-9.35 3.89-3.93 0.79-4.34 0.51-5.06 1.95-1.13 2.26 5.61-0.22 7.4 1.56 1.6 1.61 5.49 2.25 7.4 2.73 2.65 0.66 6.8-3.77 8.96-5.07 4.17-2.5 6.89-4.16 10.12-7.4 2.46-2.46 6.08-4.01 8.96-5.45 3.97-1.98 8.06-1.56 12.47-1.56h8.96c3.67 0 6.76 0.11 10.12 0.78 3.15 0.63 5.23-0.11 7.79 1.17 2.05 1.02 3.1 1.95 5.46 1.95 2.25 0 1.15 3.89-2.73 2.33-3.38-1.35-5.93-2.51-10.13-3.11-3.49-0.5-6.97-0.39-10.51-0.39h-9.74c-3.22 0-7.04-0.57-9.74 0.78-2.12 1.06-0.37 5.6 0.39 6.62 1.48 1.98 1.17 3.72 1.17 6.62v8.96c0 3.95 6.26-1.38 7.01-1.95 1.91-1.43 5.32-3.38 7.4-3.89 3.52-0.89 7.65-0.39 11.3-0.39h9.34c2.82 0 5.76 0.77 8.57 0.77 2.89 0 4.33 1.67 7.02 2.34 1.86 0.47 3.48 3.6 6.23 4.29 2.92 0.73 5.84 3.11 8.18 4.28 2.63 1.32 4.56 2.62 6.62 4.68 1.82 1.82 3.07 3.46 4.28 4.67 0.88 0.88 13.55 11.09 20.31 17.44 0.78 0.73 1.4-7.14 1.98-15.13 0.27-3.62 0.52-7.27 0.77-10.15 0.06-0.66-22.71-14.17-22.65-14.74 0.26-2.59 23.35 8.71 23.62 8.99 0.78 0.79-0.42 32.24 0.09 32.84 0.82 0.95 0.03 3.63-0.04 3.91-0.73 2.93-26.36-17.27-27.58-18.49-1.7-1.69-3.85-3.45-5.45-5.06-2.21-2.21-5.13-3.33-7.02-5.84-1.36-1.82-4.95-3-6.62-4.68-2.32-2.32-7.83-3.9-10.9-4.67-5.06-1.26-9.25-3.51-14.81-3.51h-10.12c-3.11 0-3.84 0.72-5.85 2.73-1.67 1.68-3.9 3.51-6.23 4.67-2.65 1.33-2.83 3.88-2.34 5.85 0.7 2.77 0.84 5.67 1.56 8.57 0.13 0.52 0.26 1.04 0.39 1.55 0.6 2.39 1.39 5 1.95 7.79 0.76 3.82-0.06 4.29 4.28 4.29 2.47 0 6.11-2.34 9.74-2.34 3.65 0 7.38 0.19 10.13 1.56 2.84 1.42 6.47 1.19 9.35 2.34 2.21 0.88 4.78 1.78 7.01 2.33 3.19 0.8 5.58 1.48 7.4 3.9 2.26 3.01 3.98 3.57 7.01 5.84 1.72 1.29 3.9 2.54 5.84 3.51 0.89 0.44 17.28 10.35 25.17 16.11 0.74 0.53 4.04-33.6 4.6-33.14 3.58 2.85 1.07 38.59 0.25 39.12-0.76 0.49-2.34 0.48-2.75 0.89-0.44 0.44-33.44-21.36-34.28-22.2-2.77-2.78-5.8-5.04-8.96-7.4-2.38-1.79-7.34-2.51-10.12-3.9-0.63-0.31-1.3-0.52-1.95-0.78-3.81-1.52-5.01-3.11-9.35-3.11-3 0-5.67-0.06-8.57-0.78-2.38-0.6-4.87-1.17-7.4-1.17-2.72 0-4.05 1.71-5.84 3.5-1.51 1.51-0.46 8.32 0 10.13 0.96 3.84 1.68 3.51 5.84 3.51 2.97 0 6.46 0.78 9.74 0.78 4.17 0 9-0.27 12.93 0.71 2.77 0.69 5.07 3.29 7.71 4.35 2.82 1.13 2.97 3.76 5.77 5.45 1.76 1.05 5.31 1.91 6.31 3.9 0.4 0.81 5.95 11.71 9.16 19.24 1.42 3.33-0.06 8.48 0.81 10.96 0.31 0.86 8.35 0.26 15.09-0.04 1.07-0.05 5.06 2 8.38-3.58 3.36-5.65 6.04-18.92 6.84-18.91 0.83 0.01 0.16 20.36-4.99 24.92-4.35 3.86-1.12-1.34-3.64-0.34-1.07 0.43-12.63 2.01-14.22 2.58-1.63 0.59-6.87 0.77-7.11 0.94-0.31 0.21-1.36 0.06-3.51-4.81-1.17-2.65 1.2-9.29-0.26-11.88-4.81-8.58-10.48-14.98-11.23-15.97-2.03-2.71-4.32-4.32-6.62-6.62-2.33-2.33-6.47-4.4-9.35-5.84-0.73-0.37 15.37 13.15 14.59 12.89-2.6-0.87-23.27-14.31-25.88-14.84-3.69-0.74-6.64-2.33-10.52-2.33-3.58 0-5.22-0.24-7.79 2.33-1.95 1.95-2.93 3.95-5.45 5.85-1.27 0.95-5.33 1.91-7.01 2.33-2.03 0.51-4.04 3.25-6.63 3.9-0.9 0.22-3.75 4.66-4.28 5.06-1.81 1.36-4.8 0.78-7.01 0.78-3.19 0-4.37 2.85-8.57 1.17z"
      />
      <g
          id="g22488"
          transform="matrix(.83060 0 0 .83060 -30.527 76.327)"
        >
        <path
            id="path19859"
            style="fill-rule:evenodd;stroke:#000000;stroke-width:1px;fill:#baab5a"
            d="m632.39 555.57l10.18 1.77 7.97 4.43-0.45 7.08 11.51 7.96 7.52 7.08-1.77 7.53-23.45 15.49-10.18 7.52-12.84 3.98-24.33 14.16-17.26-1.32-15.49-3.1-15.49-0.44-15.49-1.33-37.62-11.06-17.7-12.84-0.44-5.75 4.87-2.66-0.45-5.75 3.54-5.31 4.87-2.21 2.22-9.74 7.08-3.98 33.63 5.75 35.4 4.87 17.26 3.54 23.01-7.52 23.9-18.15z"
        />
        <path
            id="path18984"
            style="fill-rule:evenodd;stroke:#000000;stroke-width:1px;fill:#d6cd9d"
            d="m552.29 432.1l26.55 1.77 16.82 3.1 23.9 6.64 6.64 0.44 2.21 17.26 1.33 15.05-2.22 8.41 0.89 17.25 2.21 11.95-0.44 25.23 2.21 14.16-21.24 19.91-27.44 5.31-41.6-3.54-23.45-4.42-12.84-3.98 3.99-22.57 3.54-19.03-2.22-5.31 3.55-22.13 3.09-7.08-6.19-6.64-2.22-7.52-2.21-10.62 3.1-7.97 6.2-5.75 21.68-11.95 14.16-7.97z"
        />
        <path
            id="path4911"
            sodipodi:nodetypes="csssssssssssssssssssssssssssssssssssssssssssssssssssssssscccccccsssssssssssssssssssssssssssssssssssssssssssssscsssssssssssssssssssssssssssssssssssssccccccccsssssccssssssssscc"
            style="fill-rule:evenodd;stroke:#000000;stroke-width:1px;fill:#000000"
            d="m513.97 496.1s-0.31-2.88-1.67 4.43c-0.95 5.07-4.65 19.53 0.18 24.64 0.02 0.03 1.61-8.61 2.33-16.33 0.36-3.88-2.06-4.92 0.63-10.8 0.21-0.47 12.77-6.35 27.93-6.22 15.76 0.13 24.31 5.91 34.17 5.88 2.32 0 2.57 21.05 3.49 31.98 0.69 8.11 2.08 6.96 3.13 6.87 0.5-0.04 2.79-1.39 2.92-6.13 0.29-11.09-2.15-31.64-1.69-31.82 18.47-7.13 27.35-15.57 39.95-14.73 7.51 0.49-1.63 21.31 2.27 22.7 10.8 3.86-33.49 26.38-38.72 28.46-6.19 2.45-23.98-3.78-23.79-2.58 0.45 2.84-47.79-11.4-51.82-10.29-1.21 0.33-4.72 7.17-4.85 8.77-1.23 14.47-3.76 37.61-2.17 36.94 2-0.84 2.74-6.49 4.58-18.2 1.36-8.66 3.98-24.42 4.76-24.27 6 1.17 33.77 4.85 47.82 10.5 3.14 1.27 13.43 1.41 16.53 1.38 3.24-0.03 1.39 39.75 4.51 40.43 4.58 0.99-0.26-35.18 5.5-37.9 13.34-6.32 35.47-24.02 36.46-23.23 4.7 3.78 0.14 32.28 3.35 35.55 0.52 0.53-6.79 10.05-16.17 15.61-11.14 6.6-25.02 9.35-29.69 9.05-14.45-0.9-54.04-9.02-58.13-8.13-10.45 2.27-32.11-8.22-35-2.52-6.65 13.11-2.71 10.45-3.67 18.72-0.41 3.57 6.69-3.74 6.01-10.84-0.08-0.92 2.15-3.49 6.34-5.06 2.35-0.89 13.75-0.42 17.28 4.38 6.09 8.26 29.89 7.82 46.35 7.15 5.83-0.23 17.06 3.79 20.36 3.9 2.92 0.11 1.1 19.69 4.84 20.17 5.72 0.73-0.69-21.79 1.75-22 8.07-0.69 19.81-6.06 27.78-11.6 8.15-5.66 10.26-11.5 14.66-12.71 4.99-1.36 11.33 0.11 13.63 0.95 6.08 2.22 1.19 8.71-1.32 11.53-5.59 6.32-0.17 0.4-2.78 1.78-3.78 2-10.59 5.62-17.7 10.73-11.93 8.57-25.06 19.46-35.17 20.23-32.69 2.47-56.45-21.59-52-13.16 0.92 1.76-51.43-8.74-52.01-8.78-4.05-0.27-7.35 8.14-3.15 10.3 2.15 1.09 0.3-7.02 3.29-6.48 14.67 2.61 34.7 7.28 60.74 11.5 8.73 1.42 32.57 8.61 42.28 10.09 0.94 0.15 0.3 17.7 2.5 17.3 1.87-0.35 1.28-17.86 1.77-17.96 16.78-3.5 22.99-12.66 33.35-20.37 13.32-9.89 23.57-16.45 28.88-13.59 2.73 1.47-1.33 4.13 0.9 5.32 0.47 0.26-14.62 15.26-22.87 21.28-18.44 13.43-39.77 24.14-39.77 24.14l-11 1.05-33.18-14.79-46.11-9.67-17.03-3.48-4.86-5.2c1.35-2.03-2.44 7.42 0.41 4.56 3.48 1.77 4.32 5.06 8.51 5.06 9.43 0 23.53 3.32 33.11 4.92 8.92 1.48 30.63 10.77 39.77 13.82 9.59 3.19 19.57 6.6 29.67 6.6 8.55 0 29.18-15.77 35.42-20.45 7.37-5.53 12.25-8.63 19.76-14.27 3.88-2.9 7.37-10.5 11.62-10.5 10.9 0 11.32 3.59 2.03 12.88-5.83 5.84-9.53 5.16-12.72 7.57-4.72 3.58-15.83 13.24-22.04 14.28-7.23 1.2-28.28 15.59-34.47 15.59-11.03 0-16.62-1.96-25.89-3.82-7.75-1.55-24.52 1.53-31.84-1.77-4.48-2.02-21.73-7.61-31.04-9.47-6.89-1.38-14.11-6.79-19.65-10.94-1.08-0.81-4.34-4.53-4.42-6.76-0.09-2.26 2.99-3.02 1.99-3.89-1.48-1.28-7.31 1.71-6.16 6.06 1.3 4.95 9.29 13.09 16.3 14.84 8.54 2.14 15.75 6.86 24.4 8.58 8.42 1.69 16.41 2.15 24.93 4.29 6.16 1.53 11.77-0.92 18.08 0.65 8.58 2.15 20.05 6 29.25 6 11.27 0 16.83-4.4 23.89-9.93 5.06-3.97 8.35-3.36 12.2-7.26 0.83-0.84 12.43-2.82 13.49-3.35 4.26-2.13 11.56-12.01 15.85-12.02 3.83-0.01 16.97-10.77 17.44-13.33 0.62-3.35-0.96-4.48-2.34-8.31-1.81-5.07-0.89-2.87-6.86-7.51-2.22-1.72-5.3-3.29-7.48-6.19-2.32-3.1-1.66-5.84-4.38-7.52-2.71-1.68-10.79-4.74-13.87-6.79-2.89-1.93-2.02-10.06-2.36-12.18-1.07-6.84-3.33-33.58-3.33-37.24 0-9.11 3.09-8.93 0.83-17.34-0.61-2.28-3.17-4.68-5.08-6.48-2.38-2.26-38.6 11.85-39.24 11.92-3.74 0.44 1.76-6.87 13.59-11.64 5.3-2.14 13.3-10.4 19.04-11.59 1.25-0.26 7.28-5.69 8.45-2.9 1.28 3.06-2.32 14.4-1.31 14.73 1.55 0.53 2.52 5.62 3.47 4.11 1.39-2.21 2.44-11.46 2.56-11.3 0.01 0 0.03 0.02 0.03 0.03 0.01 0.02 0.03 0.07 0.03 0.09 0.03 0.25-0.19 0.66-0.75 1.22 3.34-1.75 1.33-16.73-5.62-14.84-4.81 1.3-13.22 8.61-19.63 10.96-6.63 2.44-11.22 6.63-18.34 10.54-0.39 0.22-1.37 0.37-2.57 0.46-0.25 0.02-0.55-2.92-0.85-11.28-0.04-0.93-0.36-4.34 1.78-5.98 2.04-1.58 6.55-1.39 6.52-2.29-0.05-1.26 12.89-9.56 25.96-14.01 1.28-0.43 4.1-4.25 5.63-1.83 2.27 3.59 3.2 14 4.25 13.56 1.41-0.58-0.03-15.51-0.04-15.74-0.05-1.23-1.32-1.63-3.37-1.46-1.15 0.09-68.87-10.29-70.42-9.89-1.03 0.27 27.11-1.02 41.29 4.39 3.01 1.15 13.67 4.19 15.97 5.11 7.74 3.12 3.35 2.92 2.47 3.23-10.5 3.76-23.06 9.86-23.2 9.87-0.13 0-5.39 4.1-12.2 6.22-6.25 1.94-13.77 1.9-20.67 2.28-1.8 0.1-22.39-7.03-24.23-6.9-4.26 0.29-7.21-3.25-9.99-3.81-1.05-0.21-5.56 0.26 1.77-4.93 11.63-8.24 40.62-15.1 39.6-15.32-2.45-0.51-16.57-4.36-30.29 4.23-8.99 5.63-23 15.98-23.07 17.31-0.03 0.61 14.35 5.08 29.95 9.86 8.79 2.69 16.72 2.49 23.92 4.74 3.65 1.14 9.29-2.24 11.91-0.77 3.09 1.73 2.84 8.23 2.83 8.4-0.19 3.69 0.34 5.14 0.14 5.13-1.42-0.02-2.61-0.1-3.03-0.24-2.86-0.92-8.43-3.74-15.39-3-9.55 1.01-14.1-6.09-22.05-5.46-6.2 0.48-9.1-3.15-14.64-2.91-6.74 0.29-9.84-1.87-14.65-1.61-2.81 0.15-2.62 2.6-2.97-0.83-0.51-4.86 7.52-16.37 6.92-15.81l-9.35 8.74-1.75 8.64 1.04 5.6 6.38 7.5 29.81 2.35 37.7 8.32-0.27-8.03-5.4-1.48c-11.32-1.98-8.62 0.22-16.78-2.93-3.21-1.24-28.4-6.14-31.16-6.37-1.72-0.15-13.91-3.8-16.76-1.82-1.9 1.32 5.74 8.13 3.62 9.21-2.88 1.46-1.73 6.69-0.22 9.72 1.21 2.43 2.49 4.6 1.66 5.25zm-33.1 94.87c-0.19 0.28-0.34 0.53-0.41 0.72-0.01 0.04-0.02 0.09-0.03 0.13-0.01 0.02 0 0.07 0 0.09v0.03 0.06c0 0.02 0.02 0.05 0.03 0.07 0.01 0 0.02 0.02 0.03 0.03 0.01 0 0.03-0.01 0.03 0 0.01 0 0.05 0.02 0.06 0.03h0.07l0.22-1.16z"
        />
        <path
            id="path20736"
            style="fill-rule:evenodd;fill:#000000;fill-opacity:.32143"
            d="m557.16 464.85c-2.37-0.09-5.07 3.46-6.2 7.97-1.13 4.53-0.21 9.27-2.21 13.27-2 4.01-3.98 5.33-4.87 9.74-0.77 3.85-2.57 6.75-3.54 10.62-0.75 3.03 0.24 7.68-0.44 11.06-0.15 0.74-0.3 1.48-0.44 2.22-0.6 3-0.89 6.09-0.89 9.29 0 3.69 0.27 7.53-0.44 11.06-0.68 3.4-1.77 6.8-1.77 10.18 0 3.62-0.29 7.67-1.77 10.62-1.39 2.78-2.56 6-3.98 8.85-1.63 3.26-2.66 6.16-2.66 9.74 0 3.61-4.63 4.51-6.64 7.52-1.28 1.93-0.95 7.22-2.21 9.74-1.86 3.73-3.42 5.72-4.42 9.73-0.91 3.62-1.93 6.65-4.87 8.86-1.19 0.88-1.92 2.36-3.1 3.54-17.26-7.97-27.44-14.61-27.44-14.61l-1.33-7.08 3.99-3.54v-4.42l3.54-5.76 2.65-0.44 1.33-8.41 6.64-5.75 10.18-2.21 6.63-41.6v-11.07l1.78-14.16 4.42-7.08-4.42-6.64-3.1-6.63-3.1-8.86-1.33-7.52 4.43-6.19 4.42-3.54 9.74 3.09 16.82 4.43 11.94 3.54"
        />
      </g
      >
    </g
    >
  </g
  >
  <metadata
    >
    <rdf:RDF
      >
      <cc:Work
        >
        <dc:format
          >image/svg+xml</dc:format
        >
        <dc:type
            rdf:resource="http://purl.org/dc/dcmitype/StillImage"
        />
        <cc:license
            rdf:resource="http://creativecommons.org/licenses/publicdomain/"
        />
        <dc:publisher
          >
          <cc:Agent
              rdf:about="http://openclipart.org/"
            >
            <dc:title
              >Openclipart</dc:title
            >
          </cc:Agent
          >
        </dc:publisher
        >
        <dc:title
          >old bridge</dc:title
        >
        <dc:date
          >2007-04-17T22:54:01</dc:date
        >
        <dc:description
          >small clip art stone bridge which I drew to use on an adventure game map</dc:description
        >
        <dc:source
          >https://openclipart.org/detail/3983/old-bridge-by-jportugall</dc:source
        >
        <dc:creator
          >
          <cc:Agent
            >
            <dc:title
              >JPortugall</dc:title
            >
          </cc:Agent
          >
        </dc:creator
        >
        <dc:subject
          >
          <rdf:Bag
            >
            <rdf:li
              >adventure</rdf:li
            >
            <rdf:li
              >bridge</rdf:li
            >
            <rdf:li
              >cartography</rdf:li
            >
            <rdf:li
              >cartoon</rdf:li
            >
            <rdf:li
              >construction</rdf:li
            >
            <rdf:li
              >game</rdf:li
            >
            <rdf:li
              >geography</rdf:li
            >
            <rdf:li
              >how i did it</rdf:li
            >
            <rdf:li
              >map</rdf:li
            >
            <rdf:li
              >rpg</rdf:li
            >
          </rdf:Bag
          >
        </dc:subject
        >
      </cc:Work
      >
      <cc:License
          rdf:about="http://creativecommons.org/licenses/publicdomain/"
        >
        <cc:permits
            rdf:resource="http://creativecommons.org/ns#Reproduction"
        />
        <cc:permits
            rdf:resource="http://creativecommons.org/ns#Distribution"
        />
        <cc:permits
            rdf:resource="http://creativecommons.org/ns#DerivativeWorks"
        />
      </cc:License
      >
    </rdf:RDF
    >
  </metadata
  >
</svg
>
