<?xml version="1.0" encoding="UTF-8" standalone="no"?>
<!-- Created with Inkscape (http://www.inkscape.org/) -->
<svg
    xmlns:inkscape="http://www.inkscape.org/namespaces/inkscape"
    xmlns:rdf="http://www.w3.org/1999/02/22-rdf-syntax-ns#"
    xmlns="http://www.w3.org/2000/svg"
    xmlns:sodipodi="http://sodipodi.sourceforge.net/DTD/sodipodi-0.dtd"
    xmlns:cc="http://creativecommons.org/ns#"
    xmlns:xlink="http://www.w3.org/1999/xlink"
    xmlns:dc="http://purl.org/dc/elements/1.1/"
    xmlns:svg="http://www.w3.org/2000/svg"
    xmlns:ns1="http://sozi.baierouge.fr"
    id="svg2"
    sodipodi:docname="fountain_outline.svg"
    viewBox="0 0 128 128"
    sodipodi:version="0.32"
    version="1.0"
    inkscape:output_extension="org.inkscape.output.svg.inkscape"
    inkscape:version="0.45+devel"
  >
  <sodipodi:namedview
      id="base"
      inkscape:zoom="1"
      borderopacity="1.0"
      inkscape:current-layer="layer1"
      inkscape:cx="64"
      inkscape:cy="64"
      showgrid="false"
      width="744.09px"
      inkscape:guide-bbox="true"
      showguides="true"
      bordercolor="#666666"
      inkscape:window-x="426"
      guidetolerance="10"
      objecttolerance="10"
      inkscape:window-y="24"
      inkscape:window-width="1248"
      inkscape:pageopacity="0.0"
      inkscape:pageshadow="2"
      pagecolor="#ffffff"
      gridtolerance="10000"
      inkscape:document-units="px"
      inkscape:window-height="975"
  />
  <g
      id="layer1"
      inkscape:label="Layer 1"
      inkscape:groupmode="layer"
    >
    <path
        id="path2309"
        style="fill:#5c2700"
        d="m63.469 33.875c-0.531 0.075-1.09 0.324-1.688 0.75-1.5 2.477-1.332 5.431-0.969 8.281-1.783 0.873-3.273 2.198-4.187 4.125-3.406 1.99-5.009 1.454-10.219 5.969-7.235 2.196-13.838 6.126-17.156 12.062-3.092 2.569-5.226 5.553-6.281 8.813v-0.281c-1.992 5.974-1.383 11.01 0.781 14.781s5.682 7.172 10.062 10.031c4.208 2.744 9.206 5.004 14.563 6.594v0.03l0.063-0.03c5.782 1.71 11.974 2.68 18.031 2.66 11.63-0.05 24.625-3.15 34.311-8.504 8.55-4.668 16.95-11.88 13.78-23.031-0.85-2.937-3.22-5.454-6.15-7.219-2.48-8.13-10.345-13.277-18.472-15.468-2.806-3.227-7.068-5.057-11.219-6.469-0.811-1.9-2.23-3.183-3.938-4.031 0.082-1.979-0.136-4.03-1.187-6.094-1.593-1.635-2.819-1.868-4.344-1.063-1.2 0.936-1.494 2.223-1.562 3.781-0.042-1.733-0.271-3.245-1.563-4.656-0.953-0.801-1.771-1.156-2.656-1.031zm0.469 0.156c0.672 0.027 1.378 0.325 2.156 0.938 1.333 1.823 1.59 4.102 1.437 6.281-0.053 0.762 0.495 1.11-0.281 2.219 0.193-0.137 0.328-0.287 0.406-0.469 0.042 0.265 0.182 0.502 0.375 0.75-0.029-0.114 0.024-0.203 0.031-0.406-0.744-1.343-0.325-6.573 1.25-7.5 0.389-0.185 0.765-0.303 1.126-0.344 0.135-0.015 0.275-0.036 0.406-0.031 0.918 0.03 1.738 0.552 2.531 1.406 1.977 3.539 1.083 7.126 0.687 10.281-0.098 0.601-0.206 1.766-0.437 2.563-0.024 0.278-0.104 0.636-0.219 0.875-0.669 0.65-1.833-0.111-1.344-0.75 0.121-1.553 0.869-3.855 0.813-5.469-0.117-2.428 0.248-5.286-2.437-6.969-1.019 0.397-0.664 1.137-1.282 3.156 0.062 0.508-0.219 3.119-0.594 3.157-0.044 0.064-0.041 0.051-0.062 0.125 0.318-0.094 0.311-0.254 0.438-0.594 0.093 0.034 0.178 0.076 0.281 0.125-0.695 1.373-2.45 0.664-2.594-0.125 0.065-0.041 0.126-0.066 0.187-0.094 0.05 0.053 0.098 0.11 0.157 0.156 0.001-0.083 0-0.166 0-0.25-0.364-0.437-0.808-2.855-0.75-3.312-0.618-2.212-0.263-2.847-1.281-3.562-2.686 0.842-2.321 3.796-2.438 6.187-0.056 1.597 0.692 4.159 0.812 5.75 0.24 0.513-1.055 0.897-1.562 0.219-0.117-0.157 0.115-0.403 0.031-0.688-0.26-0.886-0.364-2.207-0.469-2.875-0.395-3.278-1.258-7.141 0.719-10.062 0.605-0.462 1.234-0.714 1.907-0.688zm1.093 2.5c0.843 1.279 0.952 3.376 1.219 4.969-1.149 0.098-2.269 0.318-3.344 0.625-0.451-2.311 0.029-5.1 2.125-5.594zm5.313 1.219c1.538 0.843 2.206 2.646 2.281 4.406-1.078-0.303-2.209-0.519-3.344-0.625 0.192-1.375 0.365-2.94 1.063-3.781zm-4.75 4.531c-0.295 0.184-0.591 0.398-0.875 0.688-0.003 0.056 0 0.103 0 0.156l-0.031 0.219c-0.57 0.084-1.13 0.186-1.688 0.312-0.024-0.274-0.026-0.536-0.031-0.812 0.796-0.234 1.666-0.41 2.625-0.563zm3.562 0c0.62 0.184 1.168 0.504 1.563 1-0.362 0.902-1.275 1.67-2.157 1.938-1.58 0.218-2.813-0.763-3.343-2.094 0.354-0.298 0.775-0.512 1.219-0.687 0.039 0.131 0.067 0.261 0.124 0.374l-0.562 0.188c0.241 1.647 1.071 1.625 2.562 1.531 0.896-0.074 0.746-0.587 1.25-1.125-0.284-0.393-0.495-0.603-0.718-0.75 0.023-0.114 0.041-0.253 0.062-0.375zm1.438 0c0.701 0.118 1.372 0.315 2.031 0.531-0.014 0.324-0.041 0.633-0.094 0.938-0.413-0.105-0.83-0.204-1.25-0.281-0.004-0.603-0.27-0.959-0.687-1.188zm-9.688 1.344c0.034 0.249 0.06 0.504 0.094 0.75-1.577 0.824-2.453 2.158-2.812 4.063 0.722 4.569 5.39 5.262 9.343 5.406 3.801 0.019 7.389-0.789 8.781-4.188 0.128-0.377 0.227-0.772 0.344-1.156-0.094-1.818-0.873-3.076-2-3.875 0.035-0.305 0.07-0.598 0.094-0.906 1.779 1.04 3.165 2.626 3.781 4.937-1.207 5.41-6.248 6.46-11.062 7.063-10.947-0.811-14.097-8.579-6.563-12.094zm3.75 0.187l-0.125 1.25c-0.447 0.066-0.883 0.177-1.312 0.282-0.051-0.372-0.11-0.722-0.157-1.125 0.542-0.155 1.071-0.304 1.594-0.407zm6.594 0.188c0.395 0.11 0.791 0.232 1.188 0.375 0.004 0.363-0.002 0.711-0.032 1.063-0.363-0.114-0.739-0.209-1.125-0.282l-0.031-1.156zm-0.438 0.031l0.032 4.407c-2.103 1.306-4.072 1.273-6.063-0.126l0.5-3.718c0.753 0.662 2.009 1.324 3.281 1.25 1.053 0.047 1.978-0.977 2.25-1.813zm-9.718 0.969c0.052 0.325 0.09 0.664 0.125 1-0.913 0.434-1.684 1.014-2.188 1.812 0.25-1.354 0.987-2.189 2.063-2.812zm13.468 0.375c0.954 0.667 1.665 1.648 1.75 3.125-0.031 0.163-0.081 0.316-0.124 0.469-0.393-1.147-1.008-1.944-1.782-2.531 0.051-0.353 0.109-0.705 0.156-1.063zm-3.281 0.406c0.361 0.059 0.717 0.13 1.063 0.219-0.098 0.818-0.265 1.578-0.313 2.219-0.035 0.309-0.083 0.637-0.125 0.969-0.402 0.172-0.503 0.221-0.812 1-0.206 0.345-0.334 0.684-0.032 0.937 0.844 0.578 1.585 0.894 2.657 0.719 0.747-0.687 1.632-0.963 1.062-1.906-0.354-0.081-0.553-0.297-0.812-0.313 0.152-0.669 0.189-1.487 0.312-2.219 0.026-0.182 0.036-0.378 0.063-0.562 0.824 0.519 1.481 1.234 1.812 2.25-1.092 3.482-5.312 4.162-8.625 4.281-3.477-0.025-7.115-0.925-8.343-4.313h0.031c0.023-1.111 0.889-1.876 2.093-2.406 0.034 0.268 0.07 0.508 0.126 0.75-0.319-0.139-0.574 0.084-1 0.094-0.745 0.812 0.09 1.241 0.687 2.062 1.016 0.385 1.809 0.244 2.75-0.156 0.347-0.187 0.29-0.558 0.156-0.937-0.148-0.816-0.243-0.883-0.593-1.125-0.041-0.283-0.065-0.579-0.094-0.844-0.01-0.128-0.047-0.299-0.063-0.438 0.392-0.091 0.786-0.189 1.188-0.25l-0.25 2.813c2.491 1.929 4.612 1.698 7.125 0.281l-0.063-3.125zm-10.25 1.781c0.157-0.003 0.32 0.03 0.469 0.094-0.011 1.044 0.667 1.148 1.75 1.094 0.254-0.399 0.269-0.642 0.219-1.125 0.12 0.099 0.244 0.177 0.343 0.25-0.048 0.157 0.301 0.904-0.031 1.344-0.974 0.76-2.107 0.447-2.656 0.062-1.157-1.163-0.701-1.706-0.094-1.719zm17.969 0.063c6.003 1.69 11.36 5.001 12.469 11.594-0.236 10.666-14.641 14.769-24 15.312-9.33-0.312-23.362-5.13-23.25-15.312 0.413-6.043 6.064-8.934 12.093-11.438-0.227 0.332-0.274 0.812-0.343 1.157-4.966 0.87-8.17 4.913-9.657 10 1.32 9.859 13.186 11.999 21.376 12.374 8.238-0.239 19.999-2.612 21.374-12.374-0.443-5.458-4.973-8.457-9.624-10.376-0.047-0.599-0.277-0.592-0.438-0.937zm-22.875 1.531c0.008 0.412 0.058 0.798 0.094 1.188-5.275 2.01-8.623 5.207-9.125 9.125-0.034-0.177-0.068-0.349-0.094-0.531 0.478-5.067 4.728-8.054 9.125-9.782zm23.437 0.063c4.234 1.616 7.667 4.422 8.844 8.812-1.166-3.932-4.918-5.796-8.812-7.406 0.044-0.464 0.035-0.928-0.032-1.406zm-0.437 0.062c0.364 2.625-0.794 4.188-3.031 6.25-5.136 3.999-11.812 3.644-16.782-0.062-1.403-1.693-3.01-3.214-2.906-5.407 1.491 4.276 6.881 5.758 11.063 6 4.463-0.169 10.485-1.913 11.656-6.781zm-7.25 0.157c-0.03 0.421-0.007 0.855 0.219 1.281 1.12 0.406 1.579-0.066 1.812-0.844 0.725-0.019 1.444 0.639-0.125 1.687-0.614 0.269-1.82 0.345-2.625-0.593-0.239-0.497 0.267-1.149 0.25-1.313 0.131-0.06 0.316-0.135 0.469-0.218zm-15.594 1.468c0.272 1.939 0.997 3.634 2.781 5.219 0.632 0.438 1.273 0.825 1.938 1.156l-0.625 2.875c3.851 4.455 11.385 4.152 15.25-0.094l-0.375-3.124c0.021-0.085 0.937-0.632 1.281-0.844 1.662-1.605 2.739-3.287 3.031-5.063 4.089 1.6 8.084 4.23 8.969 8.657-1.733 8.866-13.251 10.768-20.843 11.124-7.317-0.251-18.091-2.339-20.376-10.406 0.156-3.866 3.518-7.42 8.969-9.5zm-10.531 3c-0.643 0.88-1.158 1.852-1.562 2.906-7.538 2.681-11.753 7.359-12.376 15.25 2.224 16.598 22.252 20.207 36.032 20.844 13.854-0.413 33.726-4.405 36.036-20.844 0.08-7.719-5.984-12.46-12.38-15.656-0.302-0.802-0.693-1.563-1.156-2.25 9.261 2.374 16.386 9.122 18.496 18.5 0.46 6.094-4.64 13.294-11.934 17.375-7.298 4.082-17.792 6-28.968 6-11.177 0-21.02-3.122-28.344-7.156-7.6-4.186-12.52-9.695-11.844-16.313 0.423-10.585 9.323-15.511 18-18.656zm10.094 1.406c-4.335 1.608-3.527 3.703-0.063 5.657l0.063-0.313c-3.039-1.328-2.967-3.628 0-5.031v-0.313zm35.844 1.626l0.187 0.343c5.936 2.513 10.065 6.604 11.125 12.657-1.49-5.154-4.771-7.352-10.312-9.938-0.221-1.055-0.629-2.056-1-3.062zm-16.813 0.124l0.25 2.844c-4.07 3.844-10.9 3.835-14.313 0.156l0.657-2.5c3.031 1.676 9.068 2.016 13.406-0.5zm-30.937 0.438c-0.087 0.315-0.212 0.795-0.25 0.938-0.361 0.821-0.476 1.805-0.594 2.718-6.562 2.51-9.747 5.46-10.438 12.156-0.084-0.408-0.19-0.823-0.25-1.25-0.015-7.324 5.424-11.591 11.5-14.531 0.01-0.03 0.023-0.006 0.032-0.031zm35.343 0.781l-0.312 0.125c3.698 2.86-2.18 4.107-4.5 4.344l0.125 0.312c3.808 0.016 8.757-2.347 4.687-4.781zm12.844 1.094c1.33 4.908-1.141 8.484-7.687 13.156-10.417 6.763-23.062 6.811-33.376 0-4.264-2.962-9.033-6.967-7.437-12.406 2.002 10.591 14.414 14.129 23.844 14.687 9.736-0.364 22.924-4.314 24.656-15.437zm0.687 1.437c6.466 2.792 9.428 4.81 10.378 11.813-2.55 15.721-22.123 18.95-35.346 19.563-12.575-0.4-30.826-3.704-34.844-17.376-0.078-7.406 3.948-10.399 10.094-13.187-0.14 4.832 3.401 8.036 7.437 11.281 2.14 1.56 4.385 2.757 6.688 3.625l-0.594 3.219c5.969 6.414 16.195 4.648 21.906 0.312l-0.625-3.687c2.375-0.839 4.708-1.921 6.938-3.25 3.834-3.203 8.667-6.619 7.968-12.313zm-37.343 3.344v0.25c4.606 4.224 10.082 5.074 15.812 2.782v-0.376c-5.376 2.243-11.441 1.055-15.812-2.656zm-26.657 1.719c-0.7 1.423-1.198 2.949-1.5 4.594l-1.937-0.219c0.953-1.543 2.099-3.02 3.437-4.375zm65.594 1.469l-0.687 0.375c3.313 0.898 3.496 4.01 3.406 7l0.125 0.312c0.363-3.698 0.741-6.389-2.844-7.687zm-49.531 0.156l-0.25 0.125c-1.092 1.606-0.858 2.462 0.531 3.906l0.25-0.187c-1.259-1.063-0.735-2.387-0.531-3.844zm-4.813 1.469l-0.25 0.062c-1.759 3.681-1.173 7.115 1.094 11.657h0.313c-1.964-4.423-2.729-8.43-1.157-11.719zm68.468 0.5l0.13 0.031c0 0.009-0.01 0.022 0 0.031 1.26 0.531 2.49 1.772 3.56 3.188l-2.6 0.5c-0.15-1.245-0.48-2.475-0.96-3.688-0.05-0.017-0.09-0.046-0.13-0.062zm-83.342 1.062l2.062 0.313c-0.09 0.557-0.181 1.134-0.219 1.718 0 0.34 0.037 0.665 0.063 1-0.076 1.327-0.138 2.664-0.094 3.938 0.036 0.946 0.196 1.873 0.438 2.781l-4.438 2.188c-0.922-4.217 0.017-8.296 2.188-11.938zm87.342 2.563c0.7 0.974 1.3 2.012 1.78 2.937 0.48 4.927-0.74 8.814-2.97 12.125l-4.68-2.25c1.89-2.647 2.96-5.543 2.96-8.594 0.15-1.248 0.19-2.459 0.07-3.656l2.84-0.562zm-3.5 0.844c0.09 1.062 0.09 2.164-0.12 3.374 0 6.111-4.42 11.7-11.722 15.782-7.298 4.081-17.324 6.687-28.5 6.687-11.177 0-21.2-2.449-28.438-6.531s-12.548-9.761-12.781-15.875l0.031-1.25c1.374 5.006 5.619 9.436 11.656 12.813 7.43 4.155 17.281 7.468 28.563 7.468s22.101-1.938 29.531-6.094c6.89-3.854 11.16-10.488 11.78-16.374zm-24.936 0.468l-0.375 0.125c2.589 3.996-0.544 6.398-4.157 8l0.313 0.063c4.744-1.708 6.68-3.651 4.219-8.188zm-6.313 2l-0.187 0.406 0.562 2.969c-5.631 4.301-16.193 4.813-21.062-0.219l0.562-2.874c6.527 2.334 13.52 2.026 20.125-0.282zm36.909 1.656c1.19 4.351-0.15 8.314-2.81 11.782l-0.29-1.25c1.98-3.045 3.15-6.549 3.1-10.532zm-92.471 0.094c-0.063 1.469 0.07 2.979 0.406 4.5l-0.094 0.032-0.062 1.374c-0.39-1.94-0.478-4.023-0.25-5.906zm5.312 2.438c1.19 4.074 4.323 7.738 8.657 10.812l-3.532 4.219c-2.982-2.299-5.626-5.038-7.781-8.313-0.893-1.561-1.487-3.113-1.844-4.656l4.5-2.062zm-4.812 2.406c0.344 1.429 0.854 2.865 1.562 4.312 2.277 3.53 5.111 6.444 8.313 8.844l-0.032 1c-3.596-2.579-6.551-5.56-8.468-8.687-0.657-1.071-1.165-2.398-1.5-3.813l0.125-1.656zm30.5 0.875v0.313c6.915 6.153 16.733 5.181 22.406 3.593v-0.25c-5.426 1.519-15.91 2.125-22.406-3.656zm53.251 2.344l4.72 2.219c-2.43 3.491-6.01 6.326-9.97 9.031-0.27 0.15-0.54 0.29-0.81 0.437l-4.785-3.25c0.639-0.316 1.272-0.631 1.875-0.968 3.79-2.118 6.86-4.637 8.97-7.469zm4.94 2.656l0.28 1.219c-2.72 3.426-6.74 6.35-10.97 8.625l-0.16-0.5c0.08-0.041 0.15-0.084 0.22-0.125 4.32-2.41 8.1-5.464 10.63-9.219zm-74.816 2.781c1.018 0.703 2.088 1.394 3.218 2.032 2.929 1.651 6.302 3.037 10 4.124l-1.5 5.468c-5.579-1.62-10.875-4.035-15.406-7.468l3.688-4.156zm58.718 3.156l4.688 3.313c-4.548 2.415-9.968 4.375-15.625 5.755l-2.125-4.786c4.83-0.963 9.249-2.434 13.062-4.282zm-62.406 1.563c4.548 3.338 9.824 5.665 15.375 7.245l0.063 1c-5.216-1.54-10.089-3.71-14.156-6.37-0.402-0.262-0.8-0.541-1.188-0.812l-0.094-1.063zm17.313 1.563c4.672 1.335 9.858 2.182 15.375 2.402l0.5 5.75c-5.745-0.26-11.728-1.09-17.438-2.71l1.563-5.442zm50.001 0.437l0.28 0.469c-0.02 0.011-0.04 0.02-0.06 0.031-4.764 2.625-10.344 4.715-16.159 6.155l0.031-0.59c5.739-1.4 11.204-3.47 15.908-6.065zm-18.376 0.813l2.125 4.782c-5.697 1.36-11.605 2.14-17.063 2.15-0.103 0-0.209-0.02-0.312-0.03l-0.75-5.75c0.909 0.04 1.824 0.07 2.75 0.07 4.641 0 9.093-0.423 13.25-1.222zm-33.219 4.532c5.74 1.61 11.742 2.44 17.5 2.81v0.75c-5.863-0.02-11.878-0.92-17.5-2.56v-1zm35.344 0.78l-0.031 0.59c-5.751 1.4-11.714 2.17-17.376 2.19h-0.062l0.094-0.72c0.135 0.01 0.271 0.03 0.406 0.03 5.567-0.02 11.382-0.76 16.969-2.09z"
    />
  </g
  >
  <metadata
    >
    <rdf:RDF
      >
      <cc:Work
        >
        <dc:format
          >image/svg+xml</dc:format
        >
        <dc:type
            rdf:resource="http://purl.org/dc/dcmitype/StillImage"
        />
        <cc:license
            rdf:resource="http://creativecommons.org/licenses/publicdomain/"
        />
        <dc:publisher
          >
          <cc:Agent
              rdf:about="http://openclipart.org/"
            >
            <dc:title
              >Openclipart</dc:title
            >
          </cc:Agent
          >
        </dc:publisher
        >
        <dc:title
          >RPG map symbols Fountain 2</dc:title
        >
        <dc:date
          >2006-12-26T00:00:00</dc:date
        >
        <dc:description
        />
        <dc:source
          >https://openclipart.org/detail/11457/-by--11457</dc:source
        >
        <dc:creator
          >
          <cc:Agent
            >
            <dc:title
              >nicubunu</dc:title
            >
          </cc:Agent
          >
        </dc:creator
        >
      </cc:Work
      >
      <cc:License
          rdf:about="http://creativecommons.org/licenses/publicdomain/"
        >
        <cc:permits
            rdf:resource="http://creativecommons.org/ns#Reproduction"
        />
        <cc:permits
            rdf:resource="http://creativecommons.org/ns#Distribution"
        />
        <cc:permits
            rdf:resource="http://creativecommons.org/ns#DerivativeWorks"
        />
      </cc:License
      >
    </rdf:RDF
    >
  </metadata
  >
</svg
>
